EESchema Schematic File Version 4
EELAYER 30 0
EELAYER END
$Descr B 17000 11000
encoding utf-8
Sheet 1 1
Title ""
Date ""
Rev ""
Comp ""
Comment1 ""
Comment2 ""
Comment3 ""
Comment4 ""
$EndDescr
$Comp
L 74xx:74HC595 U2
U 1 1 5E0C1B90
P 1900 7550
F 0 "U2" V 1854 8194 50  0000 L CNN
F 1 "74HC595" V 1945 8194 50  0000 L CNN
F 2 "Package_DIP:DIP-16_W7.62mm_Socket" H 1900 7550 50  0001 C CNN
F 3 "http://www.ti.com/lit/ds/symlink/sn74hc595.pdf" H 1900 7550 50  0001 C CNN
	1    1900 7550
	0    -1   -1   0   
$EndComp
$Comp
L Connector:Conn_02x08_LED_matrix J1
U 1 1 5E129D65
P 2250 6250
F 0 "J1" V 2646 6162 50  0000 R CNN
F 1 "Conn_02x08_LED_matrix" V 2555 6162 50  0000 R CNN
F 2 "scroller:PinHeader_1x08_P2.54mm_Vertical" H 2450 6650 50  0001 C CNN
F 3 "~" H 2450 6650 50  0001 C CNN
	1    2250 6250
	0    -1   -1   0   
$EndComp
Wire Wire Line
	2400 3200 2400 3450
Wire Wire Line
	2400 3450 1350 3450
Wire Wire Line
	1350 3450 1350 6500
Wire Wire Line
	1350 6500 1750 6500
Wire Wire Line
	1750 6500 1750 6250
Wire Wire Line
	2300 3200 2300 3400
Wire Wire Line
	2300 3400 1300 3400
Wire Wire Line
	1300 3400 1300 6450
Wire Wire Line
	1300 6450 1850 6450
Wire Wire Line
	1850 6450 1850 6250
Wire Wire Line
	2200 3200 2200 5000
Wire Wire Line
	2200 5000 2150 5000
Wire Wire Line
	2150 5000 2150 5550
Wire Wire Line
	2100 3200 2100 3500
Wire Wire Line
	2100 3500 2600 3500
Wire Wire Line
	2600 3500 2600 6500
Wire Wire Line
	2600 6500 2050 6500
Wire Wire Line
	2050 6500 2050 6250
Wire Wire Line
	2000 3200 2000 5000
Wire Wire Line
	2000 5000 2050 5000
Wire Wire Line
	2050 5000 2050 5550
Wire Wire Line
	1900 3200 1900 5000
Wire Wire Line
	1900 5000 1650 5000
Wire Wire Line
	1650 5000 1650 5550
Wire Wire Line
	1800 3200 1800 4950
Wire Wire Line
	1800 4950 1550 4950
Wire Wire Line
	1550 4950 1550 5550
Wire Wire Line
	1600 3200 1600 3350
Wire Wire Line
	1850 5100 1850 5550
Wire Wire Line
	1750 5550 1750 5050
Wire Wire Line
	1750 5050 1400 5050
Wire Wire Line
	1400 5050 1400 6550
Wire Wire Line
	1400 6550 1600 6550
Wire Wire Line
	1600 6550 1600 7150
Wire Wire Line
	1950 5550 1950 5150
Wire Wire Line
	1950 5150 1450 5150
Wire Wire Line
	1450 5150 1450 6600
Wire Wire Line
	1450 6600 1800 6600
Wire Wire Line
	1800 6600 1800 7150
Wire Wire Line
	1550 6250 1550 6700
Wire Wire Line
	1550 6700 1900 6700
Wire Wire Line
	1900 6700 1900 7150
Wire Wire Line
	1650 6250 1650 6750
Wire Wire Line
	1650 6750 2100 6750
Wire Wire Line
	2100 6750 2100 7150
Wire Wire Line
	1950 6250 1950 6650
Wire Wire Line
	1950 6650 2200 6650
Wire Wire Line
	2200 6650 2200 7150
Wire Wire Line
	2150 6250 2150 6600
Wire Wire Line
	2150 6600 2000 6600
Wire Wire Line
	2000 6600 2000 7150
Wire Wire Line
	2250 6250 2250 6900
Wire Wire Line
	2250 6900 1700 6900
Wire Wire Line
	1700 6900 1700 7150
$Comp
L 74xx:74HC595 U3
U 1 1 5E34DFCE
P 3600 2800
F 0 "U3" V 3554 3444 50  0000 L CNN
F 1 "74HC595" V 3645 3444 50  0000 L CNN
F 2 "Package_DIP:DIP-16_W7.62mm_Socket" H 3600 2800 50  0001 C CNN
F 3 "http://www.ti.com/lit/ds/symlink/sn74hc595.pdf" H 3600 2800 50  0001 C CNN
	1    3600 2800
	0    1    1    0   
$EndComp
$Comp
L 74xx:74HC595 U4
U 1 1 5E34DFD4
P 3400 7550
F 0 "U4" V 3354 8194 50  0000 L CNN
F 1 "74HC595" V 3445 8194 50  0000 L CNN
F 2 "Package_DIP:DIP-16_W7.62mm_Socket" H 3400 7550 50  0001 C CNN
F 3 "http://www.ti.com/lit/ds/symlink/sn74hc595.pdf" H 3400 7550 50  0001 C CNN
	1    3400 7550
	0    -1   -1   0   
$EndComp
$Comp
L Connector:Conn_02x08_LED_matrix J2
U 1 1 5E34DFDA
P 3750 6250
F 0 "J2" V 4146 6162 50  0000 R CNN
F 1 "Conn_02x08_LED_matrix" V 4055 6162 50  0000 R CNN
F 2 "scroller:PinHeader_1x08_P2.54mm_Vertical" H 3950 6650 50  0001 C CNN
F 3 "~" H 3950 6650 50  0001 C CNN
	1    3750 6250
	0    -1   -1   0   
$EndComp
Wire Wire Line
	3900 3200 3900 3450
Wire Wire Line
	3900 3450 2850 3450
Wire Wire Line
	2850 3450 2850 6500
Wire Wire Line
	2850 6500 3250 6500
Wire Wire Line
	3250 6500 3250 6250
Wire Wire Line
	3800 3200 3800 3400
Wire Wire Line
	3800 3400 2800 3400
Wire Wire Line
	2800 3400 2800 6450
Wire Wire Line
	2800 6450 3350 6450
Wire Wire Line
	3350 6450 3350 6250
Wire Wire Line
	3700 3200 3700 5000
Wire Wire Line
	3700 5000 3650 5000
Wire Wire Line
	3650 5000 3650 5550
Wire Wire Line
	3600 3200 3600 3500
Wire Wire Line
	3600 3500 4100 3500
Wire Wire Line
	4100 3500 4100 6500
Wire Wire Line
	4100 6500 3550 6500
Wire Wire Line
	3550 6500 3550 6250
Wire Wire Line
	3500 3200 3500 5000
Wire Wire Line
	3500 5000 3550 5000
Wire Wire Line
	3550 5000 3550 5550
Wire Wire Line
	3400 3200 3400 5000
Wire Wire Line
	3400 5000 3150 5000
Wire Wire Line
	3150 5000 3150 5550
Wire Wire Line
	3300 3200 3300 4950
Wire Wire Line
	3300 4950 3050 4950
Wire Wire Line
	3050 4950 3050 5550
Wire Wire Line
	3100 3200 3100 3350
Wire Wire Line
	3100 3350 2750 3350
Wire Wire Line
	3350 5100 3350 5550
Wire Wire Line
	3250 5550 3250 5050
Wire Wire Line
	3250 5050 2900 5050
Wire Wire Line
	2900 5050 2900 6550
Wire Wire Line
	2900 6550 3100 6550
Wire Wire Line
	3100 6550 3100 7150
Wire Wire Line
	3450 5550 3450 5150
Wire Wire Line
	3450 5150 2950 5150
Wire Wire Line
	2950 5150 2950 6600
Wire Wire Line
	2950 6600 3300 6600
Wire Wire Line
	3300 6600 3300 7150
Wire Wire Line
	3050 6250 3050 6700
Wire Wire Line
	3050 6700 3400 6700
Wire Wire Line
	3400 6700 3400 7150
Wire Wire Line
	3150 6250 3150 6750
Wire Wire Line
	3150 6750 3600 6750
Wire Wire Line
	3600 6750 3600 7150
Wire Wire Line
	3450 6250 3450 6650
Wire Wire Line
	3450 6650 3700 6650
Wire Wire Line
	3700 6650 3700 7150
Wire Wire Line
	3650 6250 3650 6600
Wire Wire Line
	3650 6600 3500 6600
Wire Wire Line
	3500 6600 3500 7150
Wire Wire Line
	3750 6250 3750 6900
Wire Wire Line
	3750 6900 3200 6900
Wire Wire Line
	3200 6900 3200 7150
$Comp
L 74xx:74HC595 U5
U 1 1 5E355F14
P 5100 2800
F 0 "U5" V 5054 3444 50  0000 L CNN
F 1 "74HC595" V 5145 3444 50  0000 L CNN
F 2 "Package_DIP:DIP-16_W7.62mm_Socket" H 5100 2800 50  0001 C CNN
F 3 "http://www.ti.com/lit/ds/symlink/sn74hc595.pdf" H 5100 2800 50  0001 C CNN
	1    5100 2800
	0    1    1    0   
$EndComp
$Comp
L 74xx:74HC595 U6
U 1 1 5E355F1A
P 4900 7550
F 0 "U6" V 4854 8194 50  0000 L CNN
F 1 "74HC595" V 4945 8194 50  0000 L CNN
F 2 "Package_DIP:DIP-16_W7.62mm_Socket" H 4900 7550 50  0001 C CNN
F 3 "http://www.ti.com/lit/ds/symlink/sn74hc595.pdf" H 4900 7550 50  0001 C CNN
	1    4900 7550
	0    -1   -1   0   
$EndComp
$Comp
L Connector:Conn_02x08_LED_matrix J3
U 1 1 5E355F20
P 5250 6250
F 0 "J3" V 5646 6162 50  0000 R CNN
F 1 "Conn_02x08_LED_matrix" V 5555 6162 50  0000 R CNN
F 2 "scroller:PinHeader_1x08_P2.54mm_Vertical" H 5450 6650 50  0001 C CNN
F 3 "~" H 5450 6650 50  0001 C CNN
	1    5250 6250
	0    -1   -1   0   
$EndComp
Wire Wire Line
	5400 3200 5400 3450
Wire Wire Line
	5400 3450 4350 3450
Wire Wire Line
	4350 3450 4350 6500
Wire Wire Line
	4350 6500 4750 6500
Wire Wire Line
	4750 6500 4750 6250
Wire Wire Line
	5300 3200 5300 3400
Wire Wire Line
	5300 3400 4300 3400
Wire Wire Line
	4300 3400 4300 6450
Wire Wire Line
	4300 6450 4850 6450
Wire Wire Line
	4850 6450 4850 6250
Wire Wire Line
	5200 3200 5200 5000
Wire Wire Line
	5200 5000 5150 5000
Wire Wire Line
	5150 5000 5150 5550
Wire Wire Line
	5100 3200 5100 3500
Wire Wire Line
	5100 3500 5600 3500
Wire Wire Line
	5600 3500 5600 6500
Wire Wire Line
	5600 6500 5050 6500
Wire Wire Line
	5050 6500 5050 6250
Wire Wire Line
	5000 3200 5000 5000
Wire Wire Line
	5000 5000 5050 5000
Wire Wire Line
	5050 5000 5050 5550
Wire Wire Line
	4900 3200 4900 5000
Wire Wire Line
	4900 5000 4650 5000
Wire Wire Line
	4650 5000 4650 5550
Wire Wire Line
	4800 3200 4800 4950
Wire Wire Line
	4800 4950 4550 4950
Wire Wire Line
	4550 4950 4550 5550
Wire Wire Line
	4600 3200 4600 3350
Wire Wire Line
	4600 3350 4250 3350
Wire Wire Line
	4850 5100 4850 5550
Wire Wire Line
	4750 5550 4750 5050
Wire Wire Line
	4750 5050 4400 5050
Wire Wire Line
	4400 5050 4400 6550
Wire Wire Line
	4400 6550 4600 6550
Wire Wire Line
	4600 6550 4600 7150
Wire Wire Line
	4950 5550 4950 5150
Wire Wire Line
	4950 5150 4450 5150
Wire Wire Line
	4450 5150 4450 6600
Wire Wire Line
	4450 6600 4800 6600
Wire Wire Line
	4800 6600 4800 7150
Wire Wire Line
	4550 6250 4550 6700
Wire Wire Line
	4550 6700 4900 6700
Wire Wire Line
	4900 6700 4900 7150
Wire Wire Line
	4650 6250 4650 6750
Wire Wire Line
	4650 6750 5100 6750
Wire Wire Line
	5100 6750 5100 7150
Wire Wire Line
	4950 6250 4950 6650
Wire Wire Line
	4950 6650 5200 6650
Wire Wire Line
	5200 6650 5200 7150
Wire Wire Line
	5150 6250 5150 6600
Wire Wire Line
	5150 6600 5000 6600
Wire Wire Line
	5000 6600 5000 7150
Wire Wire Line
	5250 6250 5250 6900
Wire Wire Line
	5250 6900 4700 6900
Wire Wire Line
	4700 6900 4700 7150
$Comp
L 74xx:74HC595 U7
U 1 1 5E3616C0
P 6600 2800
F 0 "U7" V 6554 3444 50  0000 L CNN
F 1 "74HC595" V 6645 3444 50  0000 L CNN
F 2 "Package_DIP:DIP-16_W7.62mm_Socket" H 6600 2800 50  0001 C CNN
F 3 "http://www.ti.com/lit/ds/symlink/sn74hc595.pdf" H 6600 2800 50  0001 C CNN
	1    6600 2800
	0    1    1    0   
$EndComp
$Comp
L 74xx:74HC595 U8
U 1 1 5E3616C6
P 6400 7550
F 0 "U8" V 6354 8194 50  0000 L CNN
F 1 "74HC595" V 6445 8194 50  0000 L CNN
F 2 "Package_DIP:DIP-16_W7.62mm_Socket" H 6400 7550 50  0001 C CNN
F 3 "http://www.ti.com/lit/ds/symlink/sn74hc595.pdf" H 6400 7550 50  0001 C CNN
	1    6400 7550
	0    -1   -1   0   
$EndComp
$Comp
L Connector:Conn_02x08_LED_matrix J4
U 1 1 5E3616CC
P 6750 6250
F 0 "J4" V 7146 6162 50  0000 R CNN
F 1 "Conn_02x08_LED_matrix" V 7055 6162 50  0000 R CNN
F 2 "scroller:PinHeader_1x08_P2.54mm_Vertical" H 6950 6650 50  0001 C CNN
F 3 "~" H 6950 6650 50  0001 C CNN
	1    6750 6250
	0    -1   -1   0   
$EndComp
Wire Wire Line
	6900 3200 6900 3450
Wire Wire Line
	6900 3450 5850 3450
Wire Wire Line
	5850 3450 5850 6500
Wire Wire Line
	5850 6500 6250 6500
Wire Wire Line
	6250 6500 6250 6250
Wire Wire Line
	6800 3200 6800 3400
Wire Wire Line
	6800 3400 5800 3400
Wire Wire Line
	5800 3400 5800 6450
Wire Wire Line
	5800 6450 6350 6450
Wire Wire Line
	6350 6450 6350 6250
Wire Wire Line
	6700 3200 6700 5000
Wire Wire Line
	6700 5000 6650 5000
Wire Wire Line
	6650 5000 6650 5550
Wire Wire Line
	6600 3200 6600 3500
Wire Wire Line
	6600 3500 7100 3500
Wire Wire Line
	7100 3500 7100 6500
Wire Wire Line
	7100 6500 6550 6500
Wire Wire Line
	6550 6500 6550 6250
Wire Wire Line
	6500 3200 6500 5000
Wire Wire Line
	6500 5000 6550 5000
Wire Wire Line
	6550 5000 6550 5550
Wire Wire Line
	6400 3200 6400 5000
Wire Wire Line
	6400 5000 6150 5000
Wire Wire Line
	6150 5000 6150 5550
Wire Wire Line
	6300 3200 6300 4950
Wire Wire Line
	6300 4950 6050 4950
Wire Wire Line
	6050 4950 6050 5550
Wire Wire Line
	6100 3200 6100 3350
Wire Wire Line
	6100 3350 5750 3350
Wire Wire Line
	6350 5100 6350 5550
Wire Wire Line
	6250 5550 6250 5050
Wire Wire Line
	6250 5050 5900 5050
Wire Wire Line
	5900 5050 5900 6550
Wire Wire Line
	5900 6550 6100 6550
Wire Wire Line
	6100 6550 6100 7150
Wire Wire Line
	6450 5550 6450 5150
Wire Wire Line
	6450 5150 5950 5150
Wire Wire Line
	5950 5150 5950 6600
Wire Wire Line
	5950 6600 6300 6600
Wire Wire Line
	6300 6600 6300 7150
Wire Wire Line
	6050 6250 6050 6700
Wire Wire Line
	6050 6700 6400 6700
Wire Wire Line
	6400 6700 6400 7150
Wire Wire Line
	6150 6250 6150 6750
Wire Wire Line
	6150 6750 6600 6750
Wire Wire Line
	6600 6750 6600 7150
Wire Wire Line
	6450 6250 6450 6650
Wire Wire Line
	6450 6650 6700 6650
Wire Wire Line
	6700 6650 6700 7150
Wire Wire Line
	6650 6250 6650 6600
Wire Wire Line
	6650 6600 6500 6600
Wire Wire Line
	6500 6600 6500 7150
Wire Wire Line
	6750 6250 6750 6900
Wire Wire Line
	6750 6900 6200 6900
Wire Wire Line
	6200 6900 6200 7150
$Comp
L 74xx:74HC595 U9
U 1 1 5E372C56
P 8100 2800
F 0 "U9" V 8054 3444 50  0000 L CNN
F 1 "74HC595" V 8145 3444 50  0000 L CNN
F 2 "Package_DIP:DIP-16_W7.62mm_Socket" H 8100 2800 50  0001 C CNN
F 3 "http://www.ti.com/lit/ds/symlink/sn74hc595.pdf" H 8100 2800 50  0001 C CNN
	1    8100 2800
	0    1    1    0   
$EndComp
$Comp
L 74xx:74HC595 U10
U 1 1 5E372C5C
P 7900 7550
F 0 "U10" V 7854 8194 50  0000 L CNN
F 1 "74HC595" V 7945 8194 50  0000 L CNN
F 2 "Package_DIP:DIP-16_W7.62mm_Socket" H 7900 7550 50  0001 C CNN
F 3 "http://www.ti.com/lit/ds/symlink/sn74hc595.pdf" H 7900 7550 50  0001 C CNN
	1    7900 7550
	0    -1   -1   0   
$EndComp
$Comp
L Connector:Conn_02x08_LED_matrix J5
U 1 1 5E372C62
P 8250 6250
F 0 "J5" V 8646 6162 50  0000 R CNN
F 1 "Conn_02x08_LED_matrix" V 8555 6162 50  0000 R CNN
F 2 "scroller:PinHeader_1x08_P2.54mm_Vertical" H 8450 6650 50  0001 C CNN
F 3 "~" H 8450 6650 50  0001 C CNN
	1    8250 6250
	0    -1   -1   0   
$EndComp
Wire Wire Line
	8400 3200 8400 3450
Wire Wire Line
	8400 3450 7350 3450
Wire Wire Line
	7350 3450 7350 6500
Wire Wire Line
	7350 6500 7750 6500
Wire Wire Line
	7750 6500 7750 6250
Wire Wire Line
	8300 3200 8300 3400
Wire Wire Line
	8300 3400 7300 3400
Wire Wire Line
	7300 3400 7300 6450
Wire Wire Line
	7300 6450 7850 6450
Wire Wire Line
	7850 6450 7850 6250
Wire Wire Line
	8200 3200 8200 5000
Wire Wire Line
	8200 5000 8150 5000
Wire Wire Line
	8150 5000 8150 5550
Wire Wire Line
	8100 3200 8100 3500
Wire Wire Line
	8100 3500 8600 3500
Wire Wire Line
	8600 3500 8600 6500
Wire Wire Line
	8600 6500 8050 6500
Wire Wire Line
	8050 6500 8050 6250
Wire Wire Line
	8000 3200 8000 5000
Wire Wire Line
	8000 5000 8050 5000
Wire Wire Line
	8050 5000 8050 5550
Wire Wire Line
	7900 3200 7900 5000
Wire Wire Line
	7900 5000 7650 5000
Wire Wire Line
	7650 5000 7650 5550
Wire Wire Line
	7800 3200 7800 4950
Wire Wire Line
	7800 4950 7550 4950
Wire Wire Line
	7550 4950 7550 5550
Wire Wire Line
	7600 3200 7600 3350
Wire Wire Line
	7600 3350 7250 3350
Wire Wire Line
	7850 5100 7850 5550
Wire Wire Line
	7750 5550 7750 5050
Wire Wire Line
	7750 5050 7400 5050
Wire Wire Line
	7400 5050 7400 6550
Wire Wire Line
	7400 6550 7600 6550
Wire Wire Line
	7600 6550 7600 7150
Wire Wire Line
	7950 5550 7950 5150
Wire Wire Line
	7950 5150 7450 5150
Wire Wire Line
	7450 5150 7450 6600
Wire Wire Line
	7450 6600 7800 6600
Wire Wire Line
	7800 6600 7800 7150
Wire Wire Line
	7550 6250 7550 6700
Wire Wire Line
	7550 6700 7900 6700
Wire Wire Line
	7900 6700 7900 7150
Wire Wire Line
	7650 6250 7650 6750
Wire Wire Line
	7650 6750 8100 6750
Wire Wire Line
	8100 6750 8100 7150
Wire Wire Line
	7950 6250 7950 6650
Wire Wire Line
	7950 6650 8200 6650
Wire Wire Line
	8200 6650 8200 7150
Wire Wire Line
	8150 6250 8150 6600
Wire Wire Line
	8150 6600 8000 6600
Wire Wire Line
	8000 6600 8000 7150
Wire Wire Line
	8250 6250 8250 6900
Wire Wire Line
	8250 6900 7700 6900
Wire Wire Line
	7700 6900 7700 7150
$Comp
L 74xx:74HC595 U11
U 1 1 5E38B5F1
P 9600 2800
F 0 "U11" V 9554 3444 50  0000 L CNN
F 1 "74HC595" V 9645 3444 50  0000 L CNN
F 2 "Package_DIP:DIP-16_W7.62mm_Socket" H 9600 2800 50  0001 C CNN
F 3 "http://www.ti.com/lit/ds/symlink/sn74hc595.pdf" H 9600 2800 50  0001 C CNN
	1    9600 2800
	0    1    1    0   
$EndComp
$Comp
L 74xx:74HC595 U12
U 1 1 5E38B5F7
P 9400 7550
F 0 "U12" V 9354 8194 50  0000 L CNN
F 1 "74HC595" V 9445 8194 50  0000 L CNN
F 2 "Package_DIP:DIP-16_W7.62mm_Socket" H 9400 7550 50  0001 C CNN
F 3 "http://www.ti.com/lit/ds/symlink/sn74hc595.pdf" H 9400 7550 50  0001 C CNN
	1    9400 7550
	0    -1   -1   0   
$EndComp
$Comp
L Connector:Conn_02x08_LED_matrix J6
U 1 1 5E38B5FD
P 9750 6250
F 0 "J6" V 10146 6162 50  0000 R CNN
F 1 "Conn_02x08_LED_matrix" V 10055 6162 50  0000 R CNN
F 2 "scroller:PinHeader_1x08_P2.54mm_Vertical" H 9950 6650 50  0001 C CNN
F 3 "~" H 9950 6650 50  0001 C CNN
	1    9750 6250
	0    -1   -1   0   
$EndComp
Wire Wire Line
	9900 3200 9900 3450
Wire Wire Line
	9900 3450 8850 3450
Wire Wire Line
	8850 3450 8850 6500
Wire Wire Line
	8850 6500 9250 6500
Wire Wire Line
	9250 6500 9250 6250
Wire Wire Line
	9800 3200 9800 3400
Wire Wire Line
	9800 3400 8800 3400
Wire Wire Line
	8800 3400 8800 6450
Wire Wire Line
	8800 6450 9350 6450
Wire Wire Line
	9350 6450 9350 6250
Wire Wire Line
	9700 3200 9700 5000
Wire Wire Line
	9700 5000 9650 5000
Wire Wire Line
	9650 5000 9650 5550
Wire Wire Line
	9600 3200 9600 3500
Wire Wire Line
	9600 3500 10100 3500
Wire Wire Line
	10100 3500 10100 6500
Wire Wire Line
	10100 6500 9550 6500
Wire Wire Line
	9550 6500 9550 6250
Wire Wire Line
	9500 3200 9500 5000
Wire Wire Line
	9500 5000 9550 5000
Wire Wire Line
	9550 5000 9550 5550
Wire Wire Line
	9400 3200 9400 5000
Wire Wire Line
	9400 5000 9150 5000
Wire Wire Line
	9150 5000 9150 5550
Wire Wire Line
	9300 3200 9300 4950
Wire Wire Line
	9300 4950 9050 4950
Wire Wire Line
	9050 4950 9050 5550
Wire Wire Line
	9100 3200 9100 3350
Wire Wire Line
	9100 3350 8750 3350
Wire Wire Line
	9350 5100 9350 5550
Wire Wire Line
	9250 5550 9250 5050
Wire Wire Line
	9250 5050 8900 5050
Wire Wire Line
	8900 5050 8900 6550
Wire Wire Line
	8900 6550 9100 6550
Wire Wire Line
	9100 6550 9100 7150
Wire Wire Line
	9450 5550 9450 5150
Wire Wire Line
	9450 5150 8950 5150
Wire Wire Line
	8950 5150 8950 6600
Wire Wire Line
	8950 6600 9300 6600
Wire Wire Line
	9300 6600 9300 7150
Wire Wire Line
	9050 6250 9050 6700
Wire Wire Line
	9050 6700 9400 6700
Wire Wire Line
	9400 6700 9400 7150
Wire Wire Line
	9150 6250 9150 6750
Wire Wire Line
	9150 6750 9600 6750
Wire Wire Line
	9600 6750 9600 7150
Wire Wire Line
	9450 6250 9450 6650
Wire Wire Line
	9450 6650 9700 6650
Wire Wire Line
	9700 6650 9700 7150
Wire Wire Line
	9650 6250 9650 6600
Wire Wire Line
	9650 6600 9500 6600
Wire Wire Line
	9500 6600 9500 7150
Wire Wire Line
	9750 6250 9750 6900
Wire Wire Line
	9750 6900 9200 6900
Wire Wire Line
	9200 6900 9200 7150
$Comp
L 74xx:74HC595 U13
U 1 1 5E3AC67B
P 11100 2800
F 0 "U13" V 11054 3444 50  0000 L CNN
F 1 "74HC595" V 11145 3444 50  0000 L CNN
F 2 "Package_DIP:DIP-16_W7.62mm_Socket" H 11100 2800 50  0001 C CNN
F 3 "http://www.ti.com/lit/ds/symlink/sn74hc595.pdf" H 11100 2800 50  0001 C CNN
	1    11100 2800
	0    1    1    0   
$EndComp
$Comp
L 74xx:74HC595 U14
U 1 1 5E3AC681
P 10900 7550
F 0 "U14" V 10854 8194 50  0000 L CNN
F 1 "74HC595" V 10945 8194 50  0000 L CNN
F 2 "Package_DIP:DIP-16_W7.62mm_Socket" H 10900 7550 50  0001 C CNN
F 3 "http://www.ti.com/lit/ds/symlink/sn74hc595.pdf" H 10900 7550 50  0001 C CNN
	1    10900 7550
	0    -1   -1   0   
$EndComp
$Comp
L Connector:Conn_02x08_LED_matrix J7
U 1 1 5E3AC687
P 11250 6250
F 0 "J7" V 11646 6162 50  0000 R CNN
F 1 "Conn_02x08_LED_matrix" V 11555 6162 50  0000 R CNN
F 2 "scroller:PinHeader_1x08_P2.54mm_Vertical" H 11450 6650 50  0001 C CNN
F 3 "~" H 11450 6650 50  0001 C CNN
	1    11250 6250
	0    -1   -1   0   
$EndComp
Wire Wire Line
	11400 3200 11400 3450
Wire Wire Line
	11400 3450 10350 3450
Wire Wire Line
	10350 3450 10350 6500
Wire Wire Line
	10350 6500 10750 6500
Wire Wire Line
	10750 6500 10750 6250
Wire Wire Line
	11300 3200 11300 3400
Wire Wire Line
	11300 3400 10300 3400
Wire Wire Line
	10300 3400 10300 6450
Wire Wire Line
	10300 6450 10850 6450
Wire Wire Line
	10850 6450 10850 6250
Wire Wire Line
	11200 3200 11200 5000
Wire Wire Line
	11200 5000 11150 5000
Wire Wire Line
	11150 5000 11150 5550
Wire Wire Line
	11100 3200 11100 3500
Wire Wire Line
	11100 3500 11600 3500
Wire Wire Line
	11600 3500 11600 6500
Wire Wire Line
	11600 6500 11050 6500
Wire Wire Line
	11050 6500 11050 6250
Wire Wire Line
	11000 3200 11000 5000
Wire Wire Line
	11000 5000 11050 5000
Wire Wire Line
	11050 5000 11050 5550
Wire Wire Line
	10900 3200 10900 5000
Wire Wire Line
	10900 5000 10650 5000
Wire Wire Line
	10650 5000 10650 5550
Wire Wire Line
	10800 3200 10800 4950
Wire Wire Line
	10800 4950 10550 4950
Wire Wire Line
	10550 4950 10550 5550
Wire Wire Line
	10600 3200 10600 3350
Wire Wire Line
	10600 3350 10250 3350
Wire Wire Line
	10850 5100 10850 5550
Wire Wire Line
	10750 5550 10750 5050
Wire Wire Line
	10750 5050 10400 5050
Wire Wire Line
	10400 5050 10400 6550
Wire Wire Line
	10400 6550 10600 6550
Wire Wire Line
	10600 6550 10600 7150
Wire Wire Line
	10950 5550 10950 5150
Wire Wire Line
	10950 5150 10450 5150
Wire Wire Line
	10450 5150 10450 6600
Wire Wire Line
	10450 6600 10800 6600
Wire Wire Line
	10800 6600 10800 7150
Wire Wire Line
	10550 6250 10550 6700
Wire Wire Line
	10550 6700 10900 6700
Wire Wire Line
	10900 6700 10900 7150
Wire Wire Line
	10650 6250 10650 6750
Wire Wire Line
	10650 6750 11100 6750
Wire Wire Line
	11100 6750 11100 7150
Wire Wire Line
	10950 6250 10950 6650
Wire Wire Line
	10950 6650 11200 6650
Wire Wire Line
	11200 6650 11200 7150
Wire Wire Line
	11150 6250 11150 6600
Wire Wire Line
	11150 6600 11000 6600
Wire Wire Line
	11000 6600 11000 7150
Wire Wire Line
	11250 6250 11250 6900
Wire Wire Line
	11250 6900 10700 6900
Wire Wire Line
	10700 6900 10700 7150
$Comp
L 74xx:74HC595 U15
U 1 1 5E3D73B8
P 12600 2800
F 0 "U15" V 12554 3444 50  0000 L CNN
F 1 "74HC595" V 12645 3444 50  0000 L CNN
F 2 "Package_DIP:DIP-16_W7.62mm_Socket" H 12600 2800 50  0001 C CNN
F 3 "http://www.ti.com/lit/ds/symlink/sn74hc595.pdf" H 12600 2800 50  0001 C CNN
	1    12600 2800
	0    1    1    0   
$EndComp
$Comp
L 74xx:74HC595 U16
U 1 1 5E3D73BE
P 12400 7550
F 0 "U16" V 12354 8194 50  0000 L CNN
F 1 "74HC595" V 12445 8194 50  0000 L CNN
F 2 "Package_DIP:DIP-16_W7.62mm_Socket" H 12400 7550 50  0001 C CNN
F 3 "http://www.ti.com/lit/ds/symlink/sn74hc595.pdf" H 12400 7550 50  0001 C CNN
	1    12400 7550
	0    -1   -1   0   
$EndComp
$Comp
L Connector:Conn_02x08_LED_matrix J8
U 1 1 5E3D73C4
P 12750 6250
F 0 "J8" V 13146 6162 50  0000 R CNN
F 1 "Conn_02x08_LED_matrix" V 13055 6162 50  0000 R CNN
F 2 "scroller:PinHeader_1x08_P2.54mm_Vertical" H 12950 6650 50  0001 C CNN
F 3 "~" H 12950 6650 50  0001 C CNN
	1    12750 6250
	0    -1   -1   0   
$EndComp
Wire Wire Line
	12900 3200 12900 3450
Wire Wire Line
	12900 3450 11850 3450
Wire Wire Line
	11850 3450 11850 6500
Wire Wire Line
	11850 6500 12250 6500
Wire Wire Line
	12250 6500 12250 6250
Wire Wire Line
	12800 3200 12800 3400
Wire Wire Line
	12800 3400 11800 3400
Wire Wire Line
	11800 3400 11800 6450
Wire Wire Line
	11800 6450 12350 6450
Wire Wire Line
	12350 6450 12350 6250
Wire Wire Line
	12700 3200 12700 5000
Wire Wire Line
	12700 5000 12650 5000
Wire Wire Line
	12650 5000 12650 5550
Wire Wire Line
	12600 3200 12600 3500
Wire Wire Line
	12600 3500 13100 3500
Wire Wire Line
	13100 3500 13100 6500
Wire Wire Line
	13100 6500 12550 6500
Wire Wire Line
	12550 6500 12550 6250
Wire Wire Line
	12500 3200 12500 5000
Wire Wire Line
	12500 5000 12550 5000
Wire Wire Line
	12550 5000 12550 5550
Wire Wire Line
	12400 3200 12400 5000
Wire Wire Line
	12400 5000 12150 5000
Wire Wire Line
	12150 5000 12150 5550
Wire Wire Line
	12300 3200 12300 4950
Wire Wire Line
	12300 4950 12050 4950
Wire Wire Line
	12050 4950 12050 5550
Wire Wire Line
	12100 3200 12100 3350
Wire Wire Line
	12100 3350 11750 3350
Wire Wire Line
	12350 5100 12350 5550
Wire Wire Line
	12250 5550 12250 5050
Wire Wire Line
	12250 5050 11900 5050
Wire Wire Line
	11900 5050 11900 6550
Wire Wire Line
	11900 6550 12100 6550
Wire Wire Line
	12100 6550 12100 7150
Wire Wire Line
	12450 5550 12450 5150
Wire Wire Line
	12450 5150 11950 5150
Wire Wire Line
	11950 5150 11950 6600
Wire Wire Line
	11950 6600 12300 6600
Wire Wire Line
	12300 6600 12300 7150
Wire Wire Line
	12050 6250 12050 6700
Wire Wire Line
	12050 6700 12400 6700
Wire Wire Line
	12400 6700 12400 7150
Wire Wire Line
	12150 6250 12150 6750
Wire Wire Line
	12150 6750 12600 6750
Wire Wire Line
	12600 6750 12600 7150
Wire Wire Line
	12450 6250 12450 6650
Wire Wire Line
	12450 6650 12700 6650
Wire Wire Line
	12700 6650 12700 7150
Wire Wire Line
	12650 6250 12650 6600
Wire Wire Line
	12650 6600 12500 6600
Wire Wire Line
	12500 6600 12500 7150
Wire Wire Line
	12750 6250 12750 6900
Wire Wire Line
	12750 6900 12200 6900
Wire Wire Line
	12200 6900 12200 7150
Wire Wire Line
	2400 7150 2400 6950
Wire Wire Line
	2400 6950 2700 6950
Wire Wire Line
	4000 2250 4000 2400
Wire Wire Line
	3900 7150 3900 6950
Wire Wire Line
	3900 6950 4200 6950
Wire Wire Line
	5500 2250 5500 2400
Wire Wire Line
	5400 7150 5400 6950
Wire Wire Line
	5400 6950 5700 6950
Wire Wire Line
	7000 2250 7000 2400
Wire Wire Line
	6900 7150 6900 6950
Wire Wire Line
	6900 6950 7200 6950
Wire Wire Line
	8500 2250 8500 2400
Wire Wire Line
	8400 7150 8400 6950
Wire Wire Line
	8400 6950 8700 6950
Wire Wire Line
	10000 2250 10000 2400
Wire Wire Line
	9900 7150 9900 6950
Wire Wire Line
	9900 6950 10200 6950
Wire Wire Line
	11500 2250 11500 2400
Wire Wire Line
	11400 7150 11400 6950
Wire Wire Line
	11400 6950 11700 6950
Wire Wire Line
	13000 2250 13000 2400
Wire Wire Line
	2250 5550 2250 5250
Wire Wire Line
	2250 5250 1200 5250
Wire Wire Line
	1200 5250 1200 6800
Wire Wire Line
	1200 6800 1500 6800
Wire Wire Line
	1500 6800 1500 7150
Wire Wire Line
	3750 5550 3750 5250
Wire Wire Line
	3750 5250 2650 5250
Wire Wire Line
	2650 5250 2650 6800
Wire Wire Line
	2650 6800 3000 6800
Wire Wire Line
	3000 6800 3000 7150
Wire Wire Line
	5250 5550 5250 5250
Wire Wire Line
	5250 5250 4150 5250
Wire Wire Line
	4150 5250 4150 6800
Wire Wire Line
	4150 6800 4500 6800
Wire Wire Line
	4500 6800 4500 7150
Wire Wire Line
	6750 5550 6750 5250
Wire Wire Line
	6750 5250 5650 5250
Wire Wire Line
	5650 5250 5650 6800
Wire Wire Line
	5650 6800 6000 6800
Wire Wire Line
	6000 6800 6000 7150
Wire Wire Line
	8250 5550 8250 5250
Wire Wire Line
	8250 5250 7150 5250
Wire Wire Line
	7150 5250 7150 6800
Wire Wire Line
	7150 6800 7500 6800
Wire Wire Line
	7500 6800 7500 7150
Wire Wire Line
	9750 5550 9750 5250
Wire Wire Line
	9750 5250 8650 5250
Wire Wire Line
	8650 5250 8650 6800
Wire Wire Line
	8650 6800 9000 6800
Wire Wire Line
	9000 6800 9000 7150
Wire Wire Line
	11250 5550 11250 5250
Wire Wire Line
	11250 5250 10150 5250
Wire Wire Line
	10150 5250 10150 6800
Wire Wire Line
	10150 6800 10500 6800
Wire Wire Line
	10500 6800 10500 7150
Wire Wire Line
	12750 5550 12750 5250
Wire Wire Line
	12750 5250 11650 5250
Wire Wire Line
	11650 5250 11650 6800
Wire Wire Line
	11650 6800 12000 6800
Wire Wire Line
	12000 6800 12000 7150
$Comp
L 74xx:74HC595 U1
U 1 1 5E07989B
P 2100 2800
F 0 "U1" V 2054 3444 50  0000 L CNN
F 1 "74HC595" V 2145 3444 50  0000 L CNN
F 2 "Package_DIP:DIP-16_W7.62mm_Socket" H 2100 2800 50  0001 C CNN
F 3 "http://www.ti.com/lit/ds/symlink/sn74hc595.pdf" H 2100 2800 50  0001 C CNN
	1    2100 2800
	0    1    1    0   
$EndComp
Wire Wire Line
	2700 6950 2700 3300
Wire Wire Line
	2700 3300 2800 3300
Wire Wire Line
	2800 3300 2800 2250
Wire Wire Line
	2800 2250 4000 2250
Wire Wire Line
	4200 6950 4200 3300
Wire Wire Line
	4200 3300 4300 3300
Wire Wire Line
	4300 3300 4300 2250
Wire Wire Line
	4300 2250 5500 2250
Wire Wire Line
	5700 6950 5700 3300
Wire Wire Line
	5700 3300 5800 3300
Wire Wire Line
	5800 3300 5800 2250
Wire Wire Line
	5800 2250 7000 2250
Wire Wire Line
	7200 6950 7200 3300
Wire Wire Line
	7200 3300 7300 3300
Wire Wire Line
	7300 3300 7300 2250
Wire Wire Line
	7300 2250 8500 2250
Wire Wire Line
	8700 6950 8700 3300
Wire Wire Line
	8700 3300 8800 3300
Wire Wire Line
	8800 3300 8800 2250
Wire Wire Line
	8800 2250 10000 2250
Wire Wire Line
	10200 6950 10200 3300
Wire Wire Line
	10200 3300 10300 3300
Wire Wire Line
	10300 3300 10300 2250
Wire Wire Line
	10300 2250 11500 2250
Wire Wire Line
	11700 6950 11700 3300
Wire Wire Line
	11700 3300 11800 3300
Wire Wire Line
	11800 3300 11800 2250
Wire Wire Line
	11800 2250 13000 2250
Wire Wire Line
	1500 7950 1500 8150
Wire Wire Line
	1500 8150 1150 8150
Wire Wire Line
	1150 8150 1150 3350
Wire Wire Line
	1150 3350 1600 3350
Wire Wire Line
	2750 3350 2750 8100
Wire Wire Line
	2750 8100 3000 8100
Wire Wire Line
	3000 8100 3000 7950
Wire Wire Line
	4250 3350 4250 8100
Wire Wire Line
	4250 8100 4500 8100
Wire Wire Line
	4500 8100 4500 7950
Wire Wire Line
	5750 3350 5750 8100
Wire Wire Line
	5750 8100 6000 8100
Wire Wire Line
	6000 8100 6000 7950
Wire Wire Line
	7250 3350 7250 8100
Wire Wire Line
	7250 8100 7500 8100
Wire Wire Line
	7500 8100 7500 7950
Wire Wire Line
	8750 3350 8750 8100
Wire Wire Line
	8750 8100 9000 8100
Wire Wire Line
	9000 8100 9000 7950
Wire Wire Line
	10250 3350 10250 8100
Wire Wire Line
	10250 8100 10500 8100
Wire Wire Line
	10500 8100 10500 7950
Wire Wire Line
	11750 3350 11750 8100
Wire Wire Line
	11750 8100 12000 8100
Wire Wire Line
	12000 8100 12000 7950
Wire Wire Line
	2500 3200 2500 5100
Wire Wire Line
	2500 5100 1850 5100
Wire Wire Line
	4000 5100 3350 5100
Wire Wire Line
	5500 3200 5500 5100
Wire Wire Line
	5500 5100 4850 5100
Wire Wire Line
	7000 3200 7000 5100
Wire Wire Line
	7000 5100 6350 5100
Wire Wire Line
	8500 3200 8500 5100
Wire Wire Line
	8500 5100 7850 5100
Wire Wire Line
	10000 3200 10000 5100
Wire Wire Line
	10000 5100 9350 5100
Wire Wire Line
	11500 3200 11500 5100
Wire Wire Line
	11500 5100 10850 5100
Wire Wire Line
	13000 3200 13000 5100
Wire Wire Line
	13000 5100 12350 5100
$Comp
L power:VCC #PWR034
U 1 1 621C6298
P 12700 1250
F 0 "#PWR034" H 12700 1100 50  0001 C CNN
F 1 "VCC" H 12717 1423 50  0000 C CNN
F 2 "" H 12700 1250 50  0001 C CNN
F 3 "" H 12700 1250 50  0001 C CNN
	1    12700 1250
	1    0    0    -1  
$EndComp
$Comp
L power:VCC #PWR036
U 1 1 621C7669
P 13200 2650
F 0 "#PWR036" H 13200 2500 50  0001 C CNN
F 1 "VCC" H 13217 2823 50  0000 C CNN
F 2 "" H 13200 2650 50  0001 C CNN
F 3 "" H 13200 2650 50  0001 C CNN
	1    13200 2650
	1    0    0    -1  
$EndComp
$Comp
L power:VCC #PWR028
U 1 1 62244A76
P 11700 2650
F 0 "#PWR028" H 11700 2500 50  0001 C CNN
F 1 "VCC" H 11717 2823 50  0000 C CNN
F 2 "" H 11700 2650 50  0001 C CNN
F 3 "" H 11700 2650 50  0001 C CNN
	1    11700 2650
	1    0    0    -1  
$EndComp
$Comp
L power:VCC #PWR024
U 1 1 622C1DF0
P 10200 2650
F 0 "#PWR024" H 10200 2500 50  0001 C CNN
F 1 "VCC" H 10217 2823 50  0000 C CNN
F 2 "" H 10200 2650 50  0001 C CNN
F 3 "" H 10200 2650 50  0001 C CNN
	1    10200 2650
	1    0    0    -1  
$EndComp
$Comp
L power:VCC #PWR020
U 1 1 62340F9F
P 8700 2650
F 0 "#PWR020" H 8700 2500 50  0001 C CNN
F 1 "VCC" H 8717 2823 50  0000 C CNN
F 2 "" H 8700 2650 50  0001 C CNN
F 3 "" H 8700 2650 50  0001 C CNN
	1    8700 2650
	1    0    0    -1  
$EndComp
$Comp
L power:VCC #PWR016
U 1 1 623BE33E
P 7200 2650
F 0 "#PWR016" H 7200 2500 50  0001 C CNN
F 1 "VCC" H 7217 2823 50  0000 C CNN
F 2 "" H 7200 2650 50  0001 C CNN
F 3 "" H 7200 2650 50  0001 C CNN
	1    7200 2650
	1    0    0    -1  
$EndComp
$Comp
L power:VCC #PWR08
U 1 1 6243BB1F
P 4200 2650
F 0 "#PWR08" H 4200 2500 50  0001 C CNN
F 1 "VCC" H 4217 2823 50  0000 C CNN
F 2 "" H 4200 2650 50  0001 C CNN
F 3 "" H 4200 2650 50  0001 C CNN
	1    4200 2650
	1    0    0    -1  
$EndComp
$Comp
L power:VCC #PWR012
U 1 1 624B8FB2
P 5700 2650
F 0 "#PWR012" H 5700 2500 50  0001 C CNN
F 1 "VCC" H 5717 2823 50  0000 C CNN
F 2 "" H 5700 2650 50  0001 C CNN
F 3 "" H 5700 2650 50  0001 C CNN
	1    5700 2650
	1    0    0    -1  
$EndComp
$Comp
L power:VCC #PWR04
U 1 1 62537B0F
P 2700 2650
F 0 "#PWR04" H 2700 2500 50  0001 C CNN
F 1 "VCC" H 2717 2823 50  0000 C CNN
F 2 "" H 2700 2650 50  0001 C CNN
F 3 "" H 2700 2650 50  0001 C CNN
	1    2700 2650
	1    0    0    -1  
$EndComp
$Comp
L power:VCC #PWR01
U 1 1 625BBD62
P 1300 7400
F 0 "#PWR01" H 1300 7250 50  0001 C CNN
F 1 "VCC" H 1317 7573 50  0000 C CNN
F 2 "" H 1300 7400 50  0001 C CNN
F 3 "" H 1300 7400 50  0001 C CNN
	1    1300 7400
	1    0    0    -1  
$EndComp
$Comp
L power:VCC #PWR05
U 1 1 626391E2
P 2800 7400
F 0 "#PWR05" H 2800 7250 50  0001 C CNN
F 1 "VCC" H 2817 7573 50  0000 C CNN
F 2 "" H 2800 7400 50  0001 C CNN
F 3 "" H 2800 7400 50  0001 C CNN
	1    2800 7400
	1    0    0    -1  
$EndComp
$Comp
L power:VCC #PWR09
U 1 1 626B67D3
P 4300 7400
F 0 "#PWR09" H 4300 7250 50  0001 C CNN
F 1 "VCC" H 4317 7573 50  0000 C CNN
F 2 "" H 4300 7400 50  0001 C CNN
F 3 "" H 4300 7400 50  0001 C CNN
	1    4300 7400
	1    0    0    -1  
$EndComp
$Comp
L power:VCC #PWR013
U 1 1 6273704B
P 5800 7400
F 0 "#PWR013" H 5800 7250 50  0001 C CNN
F 1 "VCC" H 5817 7573 50  0000 C CNN
F 2 "" H 5800 7400 50  0001 C CNN
F 3 "" H 5800 7400 50  0001 C CNN
	1    5800 7400
	1    0    0    -1  
$EndComp
$Comp
L power:VCC #PWR017
U 1 1 627B46C3
P 7300 7400
F 0 "#PWR017" H 7300 7250 50  0001 C CNN
F 1 "VCC" H 7317 7573 50  0000 C CNN
F 2 "" H 7300 7400 50  0001 C CNN
F 3 "" H 7300 7400 50  0001 C CNN
	1    7300 7400
	1    0    0    -1  
$EndComp
$Comp
L power:VCC #PWR025
U 1 1 62835025
P 10300 7400
F 0 "#PWR025" H 10300 7250 50  0001 C CNN
F 1 "VCC" H 10317 7573 50  0000 C CNN
F 2 "" H 10300 7400 50  0001 C CNN
F 3 "" H 10300 7400 50  0001 C CNN
	1    10300 7400
	1    0    0    -1  
$EndComp
$Comp
L power:VCC #PWR029
U 1 1 628B255E
P 11800 7400
F 0 "#PWR029" H 11800 7250 50  0001 C CNN
F 1 "VCC" H 11817 7573 50  0000 C CNN
F 2 "" H 11800 7400 50  0001 C CNN
F 3 "" H 11800 7400 50  0001 C CNN
	1    11800 7400
	1    0    0    -1  
$EndComp
Wire Wire Line
	11800 7400 11800 7550
Wire Wire Line
	10300 7400 10300 7550
$Comp
L power:VCC #PWR021
U 1 1 62A2BE3B
P 8800 7400
F 0 "#PWR021" H 8800 7250 50  0001 C CNN
F 1 "VCC" H 8817 7573 50  0000 C CNN
F 2 "" H 8800 7400 50  0001 C CNN
F 3 "" H 8800 7400 50  0001 C CNN
	1    8800 7400
	1    0    0    -1  
$EndComp
Wire Wire Line
	8800 7400 8800 7550
Wire Wire Line
	7300 7400 7300 7550
Wire Wire Line
	5800 7400 5800 7550
Wire Wire Line
	4300 7400 4300 7550
Wire Wire Line
	2800 7400 2800 7550
Wire Wire Line
	1300 7400 1300 7550
Wire Wire Line
	2700 2650 2700 2800
Wire Wire Line
	4200 2650 4200 2800
Wire Wire Line
	5700 2650 5700 2800
Wire Wire Line
	7200 2650 7200 2800
Wire Wire Line
	8700 2650 8700 2800
Wire Wire Line
	10200 2650 10200 2800
Wire Wire Line
	11700 2650 11700 2800
Wire Wire Line
	13200 2650 13200 2800
$Comp
L power:VCC #PWR031
U 1 1 631D26DA
P 11950 1400
F 0 "#PWR031" H 11950 1250 50  0001 C CNN
F 1 "VCC" H 11967 1573 50  0000 C CNN
F 2 "" H 11950 1400 50  0001 C CNN
F 3 "" H 11950 1400 50  0001 C CNN
	1    11950 1400
	1    0    0    -1  
$EndComp
Wire Wire Line
	11050 1350 11050 1450
$Comp
L power:GND #PWR033
U 1 1 632DD539
P 12450 1200
F 0 "#PWR033" H 12450 950 50  0001 C CNN
F 1 "GND" H 12455 1027 50  0000 C CNN
F 2 "" H 12450 1200 50  0001 C CNN
F 3 "" H 12450 1200 50  0001 C CNN
	1    12450 1200
	1    0    0    -1  
$EndComp
$Comp
L power:GND #PWR030
U 1 1 63366DB9
P 11900 2900
F 0 "#PWR030" H 11900 2650 50  0001 C CNN
F 1 "GND" H 11905 2727 50  0000 C CNN
F 2 "" H 11900 2900 50  0001 C CNN
F 3 "" H 11900 2900 50  0001 C CNN
	1    11900 2900
	1    0    0    -1  
$EndComp
$Comp
L power:GND #PWR022
U 1 1 63473E74
P 8900 2900
F 0 "#PWR022" H 8900 2650 50  0001 C CNN
F 1 "GND" H 8905 2727 50  0000 C CNN
F 2 "" H 8900 2900 50  0001 C CNN
F 3 "" H 8900 2900 50  0001 C CNN
	1    8900 2900
	1    0    0    -1  
$EndComp
$Comp
L power:GND #PWR018
U 1 1 634F9BF7
P 7400 2900
F 0 "#PWR018" H 7400 2650 50  0001 C CNN
F 1 "GND" H 7405 2727 50  0000 C CNN
F 2 "" H 7400 2900 50  0001 C CNN
F 3 "" H 7400 2900 50  0001 C CNN
	1    7400 2900
	1    0    0    -1  
$EndComp
$Comp
L power:GND #PWR014
U 1 1 63608438
P 5900 2900
F 0 "#PWR014" H 5900 2650 50  0001 C CNN
F 1 "GND" H 5905 2727 50  0000 C CNN
F 2 "" H 5900 2900 50  0001 C CNN
F 3 "" H 5900 2900 50  0001 C CNN
	1    5900 2900
	1    0    0    -1  
$EndComp
$Comp
L power:GND #PWR010
U 1 1 6368E24B
P 4400 2900
F 0 "#PWR010" H 4400 2650 50  0001 C CNN
F 1 "GND" H 4405 2727 50  0000 C CNN
F 2 "" H 4400 2900 50  0001 C CNN
F 3 "" H 4400 2900 50  0001 C CNN
	1    4400 2900
	1    0    0    -1  
$EndComp
$Comp
L power:GND #PWR06
U 1 1 63715268
P 2900 2900
F 0 "#PWR06" H 2900 2650 50  0001 C CNN
F 1 "GND" H 2905 2727 50  0000 C CNN
F 2 "" H 2900 2900 50  0001 C CNN
F 3 "" H 2900 2900 50  0001 C CNN
	1    2900 2900
	1    0    0    -1  
$EndComp
$Comp
L power:GND #PWR02
U 1 1 6379B09A
P 1400 2900
F 0 "#PWR02" H 1400 2650 50  0001 C CNN
F 1 "GND" H 1405 2727 50  0000 C CNN
F 2 "" H 1400 2900 50  0001 C CNN
F 3 "" H 1400 2900 50  0001 C CNN
	1    1400 2900
	1    0    0    -1  
$EndComp
$Comp
L power:GND #PWR035
U 1 1 63832FF3
P 13100 7650
F 0 "#PWR035" H 13100 7400 50  0001 C CNN
F 1 "GND" H 13105 7477 50  0000 C CNN
F 2 "" H 13100 7650 50  0001 C CNN
F 3 "" H 13100 7650 50  0001 C CNN
	1    13100 7650
	1    0    0    -1  
$EndComp
$Comp
L power:GND #PWR027
U 1 1 638B8DB7
P 11600 7650
F 0 "#PWR027" H 11600 7400 50  0001 C CNN
F 1 "GND" H 11605 7477 50  0000 C CNN
F 2 "" H 11600 7650 50  0001 C CNN
F 3 "" H 11600 7650 50  0001 C CNN
	1    11600 7650
	1    0    0    -1  
$EndComp
$Comp
L power:GND #PWR023
U 1 1 6393EBD1
P 10100 7650
F 0 "#PWR023" H 10100 7400 50  0001 C CNN
F 1 "GND" H 10105 7477 50  0000 C CNN
F 2 "" H 10100 7650 50  0001 C CNN
F 3 "" H 10100 7650 50  0001 C CNN
	1    10100 7650
	1    0    0    -1  
$EndComp
$Comp
L power:GND #PWR019
U 1 1 639C4974
P 8600 7650
F 0 "#PWR019" H 8600 7400 50  0001 C CNN
F 1 "GND" H 8605 7477 50  0000 C CNN
F 2 "" H 8600 7650 50  0001 C CNN
F 3 "" H 8600 7650 50  0001 C CNN
	1    8600 7650
	1    0    0    -1  
$EndComp
$Comp
L power:GND #PWR015
U 1 1 63A4C069
P 7100 7650
F 0 "#PWR015" H 7100 7400 50  0001 C CNN
F 1 "GND" H 7105 7477 50  0000 C CNN
F 2 "" H 7100 7650 50  0001 C CNN
F 3 "" H 7100 7650 50  0001 C CNN
	1    7100 7650
	1    0    0    -1  
$EndComp
$Comp
L power:GND #PWR07
U 1 1 63B57C29
P 4100 7650
F 0 "#PWR07" H 4100 7400 50  0001 C CNN
F 1 "GND" H 4105 7477 50  0000 C CNN
F 2 "" H 4100 7650 50  0001 C CNN
F 3 "" H 4100 7650 50  0001 C CNN
	1    4100 7650
	1    0    0    -1  
$EndComp
$Comp
L power:GND #PWR03
U 1 1 63BDEECC
P 2600 7650
F 0 "#PWR03" H 2600 7400 50  0001 C CNN
F 1 "GND" H 2605 7477 50  0000 C CNN
F 2 "" H 2600 7650 50  0001 C CNN
F 3 "" H 2600 7650 50  0001 C CNN
	1    2600 7650
	1    0    0    -1  
$EndComp
Wire Wire Line
	2600 7650 2600 7550
Wire Wire Line
	4100 7650 4100 7550
Wire Wire Line
	8600 7650 8600 7550
Wire Wire Line
	11600 7650 11600 7550
Wire Wire Line
	13100 7650 13100 7550
Wire Wire Line
	11900 2900 11900 2800
Wire Wire Line
	8900 2900 8900 2800
Wire Wire Line
	7400 2900 7400 2800
Wire Wire Line
	5900 2900 5900 2800
Wire Wire Line
	4400 2900 4400 2800
Wire Wire Line
	1400 2900 1400 2800
Wire Wire Line
	10950 1350 10950 1500
$Comp
L power:PWR_FLAG #FLG01
U 1 1 6463AAAB
P 11950 1100
F 0 "#FLG01" H 11950 1175 50  0001 C CNN
F 1 "PWR_FLAG" H 11950 1273 50  0000 C CNN
F 2 "" H 11950 1100 50  0001 C CNN
F 3 "~" H 11950 1100 50  0001 C CNN
	1    11950 1100
	1    0    0    -1  
$EndComp
Wire Wire Line
	11950 1100 11950 1400
$Comp
L power:VCC #PWR0101
U 1 1 6477AB1D
P 11450 1450
F 0 "#PWR0101" H 11450 1300 50  0001 C CNN
F 1 "VCC" H 11467 1623 50  0000 C CNN
F 2 "" H 11450 1450 50  0001 C CNN
F 3 "" H 11450 1450 50  0001 C CNN
	1    11450 1450
	1    0    0    -1  
$EndComp
Wire Wire Line
	11050 1450 11450 1450
$Comp
L power:GND #PWR0102
U 1 1 64809CFA
P 11600 1500
F 0 "#PWR0102" H 11600 1250 50  0001 C CNN
F 1 "GND" V 11605 1372 50  0000 R CNN
F 2 "" H 11600 1500 50  0001 C CNN
F 3 "" H 11600 1500 50  0001 C CNN
	1    11600 1500
	0    -1   -1   0   
$EndComp
Wire Wire Line
	10950 1500 11600 1500
Wire Wire Line
	10550 1600 2500 1600
Wire Wire Line
	2500 1600 2500 2400
Wire Wire Line
	4000 3200 4000 5100
Wire Wire Line
	7100 7650 7100 7550
NoConn ~ 12900 7150
Wire Wire Line
	2900 2900 2900 2800
$Comp
L power:GND #PWR0103
U 1 1 64F12552
P 10400 2900
F 0 "#PWR0103" H 10400 2650 50  0001 C CNN
F 1 "GND" H 10405 2727 50  0000 C CNN
F 2 "" H 10400 2900 50  0001 C CNN
F 3 "" H 10400 2900 50  0001 C CNN
	1    10400 2900
	1    0    0    -1  
$EndComp
Wire Wire Line
	10400 2900 10400 2800
Wire Wire Line
	10100 7650 10100 7550
Text Label 3400 2400 1    50   ~ 0
OE
$Comp
L Connector:Conn_01x07_Male J9
U 1 1 6517779C
P 10750 1150
F 0 "J9" V 10585 1128 50  0000 C CNN
F 1 "Conn_01x07_Male" V 10676 1128 50  0000 C CNN
F 2 "Connector_PinSocket_2.54mm:PinSocket_1x07_P2.54mm_Vertical" H 10750 1150 50  0001 C CNN
F 3 "~" H 10750 1150 50  0001 C CNN
	1    10750 1150
	0    1    1    0   
$EndComp
Text Label 10450 1350 3    50   ~ 0
OE
Text Label 1900 2400 1    50   ~ 0
OE
Text Label 4900 2400 1    50   ~ 0
OE
Text Label 6400 2400 1    50   ~ 0
OE
Text Label 7900 2400 1    50   ~ 0
OE
Text Label 9400 2400 1    50   ~ 0
OE
Text Label 10900 2400 1    50   ~ 0
OE
Text Label 12400 2400 1    50   ~ 0
OE
Text Label 12600 7950 3    50   ~ 0
OE
Text Label 11100 7950 3    50   ~ 0
OE
Text Label 9600 7950 3    50   ~ 0
OE
Text Label 8100 7950 3    50   ~ 0
OE
Text Label 6600 7950 3    50   ~ 0
OE
Text Label 5100 7950 3    50   ~ 0
OE
Text Label 3600 7950 3    50   ~ 0
OE
Text Label 2100 7950 3    50   ~ 0
OE
Text Label 2200 2400 1    50   ~ 0
MR
Text Label 3700 2400 1    50   ~ 0
MR
Text Label 5200 2400 1    50   ~ 0
MR
Text Label 6700 2400 1    50   ~ 0
MR
Text Label 8200 2400 1    50   ~ 0
MR
Text Label 9700 2400 1    50   ~ 0
MR
Text Label 11200 2400 1    50   ~ 0
MR
Text Label 12700 2400 1    50   ~ 0
MR
Text Label 12300 7950 3    50   ~ 0
MR
Text Label 10800 7950 3    50   ~ 0
MR
Text Label 9300 7950 3    50   ~ 0
MR
Text Label 7800 7950 3    50   ~ 0
MR
Text Label 6300 7950 3    50   ~ 0
MR
Text Label 4800 7950 3    50   ~ 0
MR
Text Label 3300 7950 3    50   ~ 0
MR
Text Label 1800 7950 3    50   ~ 0
MR
Text Label 10850 1350 3    50   ~ 0
RCLK
Text Label 10750 1350 3    50   ~ 0
SRCLK
Text Label 10650 1350 3    50   ~ 0
MR
Text Label 10550 1350 3    50   ~ 0
SER
Text Label 2000 2400 1    50   ~ 0
RCLK
Text Label 3500 2400 1    50   ~ 0
RCLK
Text Label 5000 2400 1    50   ~ 0
RCLK
Text Label 6500 2400 1    50   ~ 0
RCLK
Text Label 8000 2400 1    50   ~ 0
RCLK
Wire Wire Line
	10550 1600 10550 1350
Text Label 9500 2400 1    50   ~ 0
RCLK
Text Label 11000 2400 1    50   ~ 0
RCLK
Text Label 12500 2400 1    50   ~ 0
RCLK
Text Label 12500 7950 3    50   ~ 0
RCLK
Text Label 11000 7950 3    50   ~ 0
RCLK
Text Label 9500 7950 3    50   ~ 0
RCLK
Text Label 8000 7950 3    50   ~ 0
RCLK
Text Label 6500 7950 3    50   ~ 0
RCLK
Text Label 5000 7950 3    50   ~ 0
RCLK
Text Label 3500 7950 3    50   ~ 0
RCLK
Text Label 2000 7950 3    50   ~ 0
RCLK
Text Label 1700 7950 3    50   ~ 0
SRCLK
Text Label 3200 7950 3    50   ~ 0
SRCLK
Text Label 4700 7950 3    50   ~ 0
SRCLK
Text Label 6200 7950 3    50   ~ 0
SRCLK
Text Label 7700 7950 3    50   ~ 0
SRCLK
Text Label 9200 7950 3    50   ~ 0
SRCLK
Text Label 10700 7950 3    50   ~ 0
SRCLK
Text Label 12200 7950 3    50   ~ 0
SRCLK
Text Label 12800 2400 1    50   ~ 0
SRCLK
Text Label 11300 2400 1    50   ~ 0
SRCLK
Text Label 9800 2400 1    50   ~ 0
SRCLK
Text Label 8300 2400 1    50   ~ 0
SRCLK
Text Label 6800 2400 1    50   ~ 0
SRCLK
Text Label 5300 2400 1    50   ~ 0
SRCLK
Text Label 3800 2400 1    50   ~ 0
SRCLK
Text Label 2300 2400 1    50   ~ 0
SRCLK
$Comp
L power:PWR_FLAG #FLG0101
U 1 1 653B7641
P 12450 1100
F 0 "#FLG0101" H 12450 1175 50  0001 C CNN
F 1 "PWR_FLAG" H 12450 1273 50  0000 C CNN
F 2 "" H 12450 1100 50  0001 C CNN
F 3 "~" H 12450 1100 50  0001 C CNN
	1    12450 1100
	1    0    0    -1  
$EndComp
Wire Wire Line
	12450 1100 12450 1200
$Comp
L power:GND #PWR0104
U 1 1 65493609
P 5600 7650
F 0 "#PWR0104" H 5600 7400 50  0001 C CNN
F 1 "GND" H 5605 7477 50  0000 C CNN
F 2 "" H 5600 7650 50  0001 C CNN
F 3 "" H 5600 7650 50  0001 C CNN
	1    5600 7650
	1    0    0    -1  
$EndComp
Wire Wire Line
	5600 7650 5600 7550
$EndSCHEMATC
