%!PS-Adobe-3.0
%%Creator: PCBNEW
%%CreationDate: Tue Dec 31 14:19:51 2019
%%Title: /home/tfuller/lang/rpi/circuitBoards/scroller/scroller/gerber/scroller-PTH-drl_map.ps
%%Pages: 1
%%PageOrder: Ascend
%%BoundingBox: 0 0 596 842
%%DocumentMedia: A4 595 842 0 () ()
%%Orientation: Landscape
%%EndComments
%%BeginProlog
/line { newpath moveto lineto stroke } bind def
/cir0 { newpath 0 360 arc stroke } bind def
/cir1 { newpath 0 360 arc gsave fill grestore stroke } bind def
/cir2 { newpath 0 360 arc gsave fill grestore stroke } bind def
/arc0 { newpath arc stroke } bind def
/arc1 { newpath 4 index 4 index moveto arc closepath gsave fill
    grestore stroke } bind def
/arc2 { newpath 4 index 4 index moveto arc closepath gsave fill
    grestore stroke } bind def
/poly0 { stroke } bind def
/poly1 { closepath gsave fill grestore stroke } bind def
/poly2 { closepath gsave fill grestore stroke } bind def
/rect0 { rectstroke } bind def
/rect1 { rectfill } bind def
/rect2 { rectfill } bind def
/linemode0 { 0 setlinecap 0 setlinejoin 0 setlinewidth } bind def
/linemode1 { 1 setlinecap 1 setlinejoin } bind def
/dashedline { [200] 100 setdash } bind def
/solidline { [] 0 setdash } bind def
/phantomshow { moveto
    /KicadFont findfont 0.000001 scalefont setfont
    show } bind def
/textshow { gsave
    findfont exch scalefont setfont concat 1 scale 0 0 moveto show
    } bind def
/reencodefont {
  findfont dup length dict begin
  { 1 index /FID ne
    { def }
    { pop pop } ifelse
  } forall
  /Encoding ISOLatin1Encoding def
  currentdict
  end } bind def
/KicadFont /Helvetica reencodefont definefont pop
/KicadFont-Bold /Helvetica-Bold reencodefont definefont pop
/KicadFont-Oblique /Helvetica-Oblique reencodefont definefont pop
/KicadFont-BoldOblique /Helvetica-BoldOblique reencodefont definefont pop
%%EndProlog
%%Page: 1 1
%%BeginPageSetup
gsave
0.0072 0.0072 scale
linemode1
82680 0 translate 90 rotate
67.4193 setlinewidth
%%EndPageSetup
0 0 0 setrgbcolor
53.086 setlinewidth
newpath
109029 76416.3 moveto
109029 39335.7 lineto
stroke
0 0 0 setrgbcolor
newpath
7900.56 76416.3 moveto
109029 76416.3 lineto
stroke
0 0 0 setrgbcolor
newpath
7900.56 39335.7 moveto
7900.56 76416.3 lineto
stroke
0 0 0 setrgbcolor
newpath
109029 39335.7 moveto
7900.56 39335.7 lineto
stroke
78.7398 setlinewidth
newpath
20766.3 53023.7 moveto
20978.7 52811.4 lineto
stroke
newpath
20978.7 53023.7 moveto
20766.3 52811.4 lineto
stroke
newpath
27688.1 64320.5 moveto
27900.4 64108.1 lineto
stroke
newpath
27900.4 64320.5 moveto
27688.1 64108.1 lineto
stroke
newpath
31003.2 64603.6 moveto
31215.6 64391.2 lineto
stroke
newpath
31215.6 64603.6 moveto
31003.2 64391.2 lineto
stroke
newpath
32387.7 53137 moveto
32600 52924.6 lineto
stroke
newpath
32600 53137 moveto
32387.7 52924.6 lineto
stroke
newpath
41817 64889.1 moveto
42029.3 64676.8 lineto
stroke
newpath
42029.3 64889.1 moveto
41817 64676.8 lineto
stroke
newpath
42724.9 65215.6 moveto
42937.2 65003.3 lineto
stroke
newpath
42937.2 65215.6 moveto
42724.9 65003.3 lineto
stroke
newpath
54651.7 53259.3 moveto
54864.1 53046.9 lineto
stroke
newpath
54864.1 53259.3 moveto
54651.7 53046.9 lineto
stroke
newpath
57459.2 65040.1 moveto
57671.6 64827.7 lineto
stroke
newpath
57671.6 65040.1 moveto
57459.2 64827.7 lineto
stroke
newpath
64343 64587.5 moveto
64555.3 64375.2 lineto
stroke
newpath
64555.3 64587.5 moveto
64343 64375.2 lineto
stroke
newpath
65514.9 64652.5 moveto
65727.2 64440.2 lineto
stroke
newpath
65727.2 64652.5 moveto
65514.9 64440.2 lineto
stroke
newpath
80154 64316 moveto
80366.3 64103.6 lineto
stroke
newpath
80366.3 64316 moveto
80154 64103.6 lineto
stroke
newpath
87608.6 64577.4 moveto
87821 64365.1 lineto
stroke
newpath
87821 64577.4 moveto
87608.6 64365.1 lineto
stroke
newpath
88686 51545.2 moveto
88898.3 51332.8 lineto
stroke
newpath
88898.3 51545.2 moveto
88686 51332.8 lineto
stroke
newpath
88749.8 64536.8 moveto
88962.2 64324.5 lineto
stroke
newpath
88962.2 64536.8 moveto
88749.8 64324.5 lineto
stroke
9878.01 73045.3 132.715 cir0
10286.2 74030.7 132.715 cir0
10286.2 72060 132.715 cir0
11271.5 74438.8 132.715 cir0
11271.5 71651.8 132.715 cir0
12256.9 74030.7 132.715 cir0
12256.9 72060 132.715 cir0
12665 73045.3 132.715 cir0
104265 73045.3 132.715 cir0
104673 74030.7 132.715 cir0
104673 72060 132.715 cir0
105658 74438.8 132.715 cir0
105658 71651.8 132.715 cir0
106644 74030.7 132.715 cir0
106644 72060 132.715 cir0
107052 73045.3 132.715 cir0
9878.01 42706.7 132.715 cir0
10286.2 43692 132.715 cir0
10286.2 41721.3 132.715 cir0
11271.5 44100.2 132.715 cir0
11271.5 41313.2 132.715 cir0
12256.9 43692 132.715 cir0
12256.9 41721.3 132.715 cir0
12665 42706.7 132.715 cir0
104265 42706.7 132.715 cir0
104673 43692 132.715 cir0
104673 41721.3 132.715 cir0
105658 44100.2 132.715 cir0
105658 41313.2 132.715 cir0
106644 43692 132.715 cir0
106644 41721.3 132.715 cir0
107052 42706.7 132.715 cir0
newpath
74645.6 74606.1 moveto
74645.6 74181.4 lineto
stroke
newpath
74433.3 74393.7 moveto
74858 74393.7 lineto
stroke
newpath
74645.6 73257.7 moveto
74645.6 72833 lineto
stroke
newpath
74433.3 73045.3 moveto
74858 73045.3 lineto
stroke
newpath
74645.6 71909.3 moveto
74645.6 71484.6 lineto
stroke
newpath
74433.3 71696.9 moveto
74858 71696.9 lineto
stroke
newpath
74645.6 70560.9 moveto
74645.6 70136.2 lineto
stroke
newpath
74433.3 70348.6 moveto
74858 70348.6 lineto
stroke
newpath
74645.6 69212.5 moveto
74645.6 68787.8 lineto
stroke
newpath
74433.3 69000.2 moveto
74858 69000.2 lineto
stroke
newpath
74645.6 67864.1 moveto
74645.6 67439.4 lineto
stroke
newpath
74433.3 67651.8 moveto
74858 67651.8 lineto
stroke
newpath
74645.6 66515.8 moveto
74645.6 66091.1 lineto
stroke
newpath
74433.3 66303.4 moveto
74858 66303.4 lineto
stroke
newpath
74645.6 65167.4 moveto
74645.6 64742.7 lineto
stroke
newpath
74433.3 64955 moveto
74858 64955 lineto
stroke
newpath
78690.8 74606.1 moveto
78690.8 74181.4 lineto
stroke
newpath
78478.4 74393.7 moveto
78903.1 74393.7 lineto
stroke
newpath
78690.8 73257.7 moveto
78690.8 72833 lineto
stroke
newpath
78478.4 73045.3 moveto
78903.1 73045.3 lineto
stroke
newpath
78690.8 71909.3 moveto
78690.8 71484.6 lineto
stroke
newpath
78478.4 71696.9 moveto
78903.1 71696.9 lineto
stroke
newpath
78690.8 70560.9 moveto
78690.8 70136.2 lineto
stroke
newpath
78478.4 70348.6 moveto
78903.1 70348.6 lineto
stroke
newpath
78690.8 69212.5 moveto
78690.8 68787.8 lineto
stroke
newpath
78478.4 69000.2 moveto
78903.1 69000.2 lineto
stroke
newpath
78690.8 67864.1 moveto
78690.8 67439.4 lineto
stroke
newpath
78478.4 67651.8 moveto
78903.1 67651.8 lineto
stroke
newpath
78690.8 66515.8 moveto
78690.8 66091.1 lineto
stroke
newpath
78478.4 66303.4 moveto
78903.1 66303.4 lineto
stroke
newpath
78690.8 65167.4 moveto
78690.8 64742.7 lineto
stroke
newpath
78478.4 64955 moveto
78903.1 64955 lineto
stroke
newpath
63184.3 74606.1 moveto
63184.3 74181.4 lineto
stroke
newpath
62972 74393.7 moveto
63396.7 74393.7 lineto
stroke
newpath
63184.3 73257.7 moveto
63184.3 72833 lineto
stroke
newpath
62972 73045.3 moveto
63396.7 73045.3 lineto
stroke
newpath
63184.3 71909.3 moveto
63184.3 71484.6 lineto
stroke
newpath
62972 71696.9 moveto
63396.7 71696.9 lineto
stroke
newpath
63184.3 70560.9 moveto
63184.3 70136.2 lineto
stroke
newpath
62972 70348.6 moveto
63396.7 70348.6 lineto
stroke
newpath
63184.3 69212.5 moveto
63184.3 68787.8 lineto
stroke
newpath
62972 69000.2 moveto
63396.7 69000.2 lineto
stroke
newpath
63184.3 67864.1 moveto
63184.3 67439.4 lineto
stroke
newpath
62972 67651.8 moveto
63396.7 67651.8 lineto
stroke
newpath
63184.3 66515.8 moveto
63184.3 66091.1 lineto
stroke
newpath
62972 66303.4 moveto
63396.7 66303.4 lineto
stroke
newpath
63184.3 65167.4 moveto
63184.3 64742.7 lineto
stroke
newpath
62972 64955 moveto
63396.7 64955 lineto
stroke
newpath
67229.5 74606.1 moveto
67229.5 74181.4 lineto
stroke
newpath
67017.2 74393.7 moveto
67441.8 74393.7 lineto
stroke
newpath
67229.5 73257.7 moveto
67229.5 72833 lineto
stroke
newpath
67017.2 73045.3 moveto
67441.8 73045.3 lineto
stroke
newpath
67229.5 71909.3 moveto
67229.5 71484.6 lineto
stroke
newpath
67017.2 71696.9 moveto
67441.8 71696.9 lineto
stroke
newpath
67229.5 70560.9 moveto
67229.5 70136.2 lineto
stroke
newpath
67017.2 70348.6 moveto
67441.8 70348.6 lineto
stroke
newpath
67229.5 69212.5 moveto
67229.5 68787.8 lineto
stroke
newpath
67017.2 69000.2 moveto
67441.8 69000.2 lineto
stroke
newpath
67229.5 67864.1 moveto
67229.5 67439.4 lineto
stroke
newpath
67017.2 67651.8 moveto
67441.8 67651.8 lineto
stroke
newpath
67229.5 66515.8 moveto
67229.5 66091.1 lineto
stroke
newpath
67017.2 66303.4 moveto
67441.8 66303.4 lineto
stroke
newpath
67229.5 65167.4 moveto
67229.5 64742.7 lineto
stroke
newpath
67017.2 64955 moveto
67441.8 64955 lineto
stroke
newpath
51723.1 74606.1 moveto
51723.1 74181.4 lineto
stroke
newpath
51510.7 74393.7 moveto
51935.4 74393.7 lineto
stroke
newpath
51723.1 73257.7 moveto
51723.1 72833 lineto
stroke
newpath
51510.7 73045.3 moveto
51935.4 73045.3 lineto
stroke
newpath
51723.1 71909.3 moveto
51723.1 71484.6 lineto
stroke
newpath
51510.7 71696.9 moveto
51935.4 71696.9 lineto
stroke
newpath
51723.1 70560.9 moveto
51723.1 70136.2 lineto
stroke
newpath
51510.7 70348.6 moveto
51935.4 70348.6 lineto
stroke
newpath
51723.1 69212.5 moveto
51723.1 68787.8 lineto
stroke
newpath
51510.7 69000.2 moveto
51935.4 69000.2 lineto
stroke
newpath
51723.1 67864.1 moveto
51723.1 67439.4 lineto
stroke
newpath
51510.7 67651.8 moveto
51935.4 67651.8 lineto
stroke
newpath
51723.1 66515.8 moveto
51723.1 66091.1 lineto
stroke
newpath
51510.7 66303.4 moveto
51935.4 66303.4 lineto
stroke
newpath
51723.1 65167.4 moveto
51723.1 64742.7 lineto
stroke
newpath
51510.7 64955 moveto
51935.4 64955 lineto
stroke
newpath
55768.2 74606.1 moveto
55768.2 74181.4 lineto
stroke
newpath
55555.9 74393.7 moveto
55980.6 74393.7 lineto
stroke
newpath
55768.2 73257.7 moveto
55768.2 72833 lineto
stroke
newpath
55555.9 73045.3 moveto
55980.6 73045.3 lineto
stroke
newpath
55768.2 71909.3 moveto
55768.2 71484.6 lineto
stroke
newpath
55555.9 71696.9 moveto
55980.6 71696.9 lineto
stroke
newpath
55768.2 70560.9 moveto
55768.2 70136.2 lineto
stroke
newpath
55555.9 70348.6 moveto
55980.6 70348.6 lineto
stroke
newpath
55768.2 69212.5 moveto
55768.2 68787.8 lineto
stroke
newpath
55555.9 69000.2 moveto
55980.6 69000.2 lineto
stroke
newpath
55768.2 67864.1 moveto
55768.2 67439.4 lineto
stroke
newpath
55555.9 67651.8 moveto
55980.6 67651.8 lineto
stroke
newpath
55768.2 66515.8 moveto
55768.2 66091.1 lineto
stroke
newpath
55555.9 66303.4 moveto
55980.6 66303.4 lineto
stroke
newpath
55768.2 65167.4 moveto
55768.2 64742.7 lineto
stroke
newpath
55555.9 64955 moveto
55980.6 64955 lineto
stroke
newpath
28800.5 51683.5 moveto
28800.5 51258.8 lineto
stroke
newpath
28588.2 51471.2 moveto
29012.9 51471.2 lineto
stroke
newpath
28800.5 50335.1 moveto
28800.5 49910.4 lineto
stroke
newpath
28588.2 50122.8 moveto
29012.9 50122.8 lineto
stroke
newpath
28800.5 48986.7 moveto
28800.5 48562.1 lineto
stroke
newpath
28588.2 48774.4 moveto
29012.9 48774.4 lineto
stroke
newpath
28800.5 47638.4 moveto
28800.5 47213.7 lineto
stroke
newpath
28588.2 47426 moveto
29012.9 47426 lineto
stroke
newpath
28800.5 46290 moveto
28800.5 45865.3 lineto
stroke
newpath
28588.2 46077.6 moveto
29012.9 46077.6 lineto
stroke
newpath
28800.5 44941.6 moveto
28800.5 44516.9 lineto
stroke
newpath
28588.2 44729.2 moveto
29012.9 44729.2 lineto
stroke
newpath
28800.5 43593.2 moveto
28800.5 43168.5 lineto
stroke
newpath
28588.2 43380.9 moveto
29012.9 43380.9 lineto
stroke
newpath
28800.5 42244.8 moveto
28800.5 41820.1 lineto
stroke
newpath
28588.2 42032.5 moveto
29012.9 42032.5 lineto
stroke
newpath
32845.7 51683.5 moveto
32845.7 51258.8 lineto
stroke
newpath
32633.3 51471.2 moveto
33058 51471.2 lineto
stroke
newpath
32845.7 50335.1 moveto
32845.7 49910.4 lineto
stroke
newpath
32633.3 50122.8 moveto
33058 50122.8 lineto
stroke
newpath
32845.7 48986.7 moveto
32845.7 48562.1 lineto
stroke
newpath
32633.3 48774.4 moveto
33058 48774.4 lineto
stroke
newpath
32845.7 47638.4 moveto
32845.7 47213.7 lineto
stroke
newpath
32633.3 47426 moveto
33058 47426 lineto
stroke
newpath
32845.7 46290 moveto
32845.7 45865.3 lineto
stroke
newpath
32633.3 46077.6 moveto
33058 46077.6 lineto
stroke
newpath
32845.7 44941.6 moveto
32845.7 44516.9 lineto
stroke
newpath
32633.3 44729.2 moveto
33058 44729.2 lineto
stroke
newpath
32845.7 43593.2 moveto
32845.7 43168.5 lineto
stroke
newpath
32633.3 43380.9 moveto
33058 43380.9 lineto
stroke
newpath
32845.7 42244.8 moveto
32845.7 41820.1 lineto
stroke
newpath
32633.3 42032.5 moveto
33058 42032.5 lineto
stroke
newpath
86106.9 74606.1 moveto
86106.9 74181.4 lineto
stroke
newpath
85894.6 74393.7 moveto
86319.2 74393.7 lineto
stroke
newpath
86106.9 73257.7 moveto
86106.9 72833 lineto
stroke
newpath
85894.6 73045.3 moveto
86319.2 73045.3 lineto
stroke
newpath
86106.9 71909.3 moveto
86106.9 71484.6 lineto
stroke
newpath
85894.6 71696.9 moveto
86319.2 71696.9 lineto
stroke
newpath
86106.9 70560.9 moveto
86106.9 70136.2 lineto
stroke
newpath
85894.6 70348.6 moveto
86319.2 70348.6 lineto
stroke
newpath
86106.9 69212.5 moveto
86106.9 68787.8 lineto
stroke
newpath
85894.6 69000.2 moveto
86319.2 69000.2 lineto
stroke
newpath
86106.9 67864.1 moveto
86106.9 67439.4 lineto
stroke
newpath
85894.6 67651.8 moveto
86319.2 67651.8 lineto
stroke
newpath
86106.9 66515.8 moveto
86106.9 66091.1 lineto
stroke
newpath
85894.6 66303.4 moveto
86319.2 66303.4 lineto
stroke
newpath
86106.9 65167.4 moveto
86106.9 64742.7 lineto
stroke
newpath
85894.6 64955 moveto
86319.2 64955 lineto
stroke
newpath
90152 74606.1 moveto
90152 74181.4 lineto
stroke
newpath
89939.7 74393.7 moveto
90364.4 74393.7 lineto
stroke
newpath
90152 73257.7 moveto
90152 72833 lineto
stroke
newpath
89939.7 73045.3 moveto
90364.4 73045.3 lineto
stroke
newpath
90152 71909.3 moveto
90152 71484.6 lineto
stroke
newpath
89939.7 71696.9 moveto
90364.4 71696.9 lineto
stroke
newpath
90152 70560.9 moveto
90152 70136.2 lineto
stroke
newpath
89939.7 70348.6 moveto
90364.4 70348.6 lineto
stroke
newpath
90152 69212.5 moveto
90152 68787.8 lineto
stroke
newpath
89939.7 69000.2 moveto
90364.4 69000.2 lineto
stroke
newpath
90152 67864.1 moveto
90152 67439.4 lineto
stroke
newpath
89939.7 67651.8 moveto
90364.4 67651.8 lineto
stroke
newpath
90152 66515.8 moveto
90152 66091.1 lineto
stroke
newpath
89939.7 66303.4 moveto
90364.4 66303.4 lineto
stroke
newpath
90152 65167.4 moveto
90152 64742.7 lineto
stroke
newpath
89939.7 64955 moveto
90364.4 64955 lineto
stroke
newpath
51723.1 51683.5 moveto
51723.1 51258.8 lineto
stroke
newpath
51510.7 51471.2 moveto
51935.4 51471.2 lineto
stroke
newpath
51723.1 50335.1 moveto
51723.1 49910.4 lineto
stroke
newpath
51510.7 50122.8 moveto
51935.4 50122.8 lineto
stroke
newpath
51723.1 48986.7 moveto
51723.1 48562.1 lineto
stroke
newpath
51510.7 48774.4 moveto
51935.4 48774.4 lineto
stroke
newpath
51723.1 47638.4 moveto
51723.1 47213.7 lineto
stroke
newpath
51510.7 47426 moveto
51935.4 47426 lineto
stroke
newpath
51723.1 46290 moveto
51723.1 45865.3 lineto
stroke
newpath
51510.7 46077.6 moveto
51935.4 46077.6 lineto
stroke
newpath
51723.1 44941.6 moveto
51723.1 44516.9 lineto
stroke
newpath
51510.7 44729.2 moveto
51935.4 44729.2 lineto
stroke
newpath
51723.1 43593.2 moveto
51723.1 43168.5 lineto
stroke
newpath
51510.7 43380.9 moveto
51935.4 43380.9 lineto
stroke
newpath
51723.1 42244.8 moveto
51723.1 41820.1 lineto
stroke
newpath
51510.7 42032.5 moveto
51935.4 42032.5 lineto
stroke
newpath
55768.2 51683.5 moveto
55768.2 51258.8 lineto
stroke
newpath
55555.9 51471.2 moveto
55980.6 51471.2 lineto
stroke
newpath
55768.2 50335.1 moveto
55768.2 49910.4 lineto
stroke
newpath
55555.9 50122.8 moveto
55980.6 50122.8 lineto
stroke
newpath
55768.2 48986.7 moveto
55768.2 48562.1 lineto
stroke
newpath
55555.9 48774.4 moveto
55980.6 48774.4 lineto
stroke
newpath
55768.2 47638.4 moveto
55768.2 47213.7 lineto
stroke
newpath
55555.9 47426 moveto
55980.6 47426 lineto
stroke
newpath
55768.2 46290 moveto
55768.2 45865.3 lineto
stroke
newpath
55555.9 46077.6 moveto
55980.6 46077.6 lineto
stroke
newpath
55768.2 44941.6 moveto
55768.2 44516.9 lineto
stroke
newpath
55555.9 44729.2 moveto
55980.6 44729.2 lineto
stroke
newpath
55768.2 43593.2 moveto
55768.2 43168.5 lineto
stroke
newpath
55555.9 43380.9 moveto
55980.6 43380.9 lineto
stroke
newpath
55768.2 42244.8 moveto
55768.2 41820.1 lineto
stroke
newpath
55555.9 42032.5 moveto
55980.6 42032.5 lineto
stroke
newpath
63184.3 51683.5 moveto
63184.3 51258.8 lineto
stroke
newpath
62972 51471.2 moveto
63396.7 51471.2 lineto
stroke
newpath
63184.3 50335.1 moveto
63184.3 49910.4 lineto
stroke
newpath
62972 50122.8 moveto
63396.7 50122.8 lineto
stroke
newpath
63184.3 48986.7 moveto
63184.3 48562.1 lineto
stroke
newpath
62972 48774.4 moveto
63396.7 48774.4 lineto
stroke
newpath
63184.3 47638.4 moveto
63184.3 47213.7 lineto
stroke
newpath
62972 47426 moveto
63396.7 47426 lineto
stroke
newpath
63184.3 46290 moveto
63184.3 45865.3 lineto
stroke
newpath
62972 46077.6 moveto
63396.7 46077.6 lineto
stroke
newpath
63184.3 44941.6 moveto
63184.3 44516.9 lineto
stroke
newpath
62972 44729.2 moveto
63396.7 44729.2 lineto
stroke
newpath
63184.3 43593.2 moveto
63184.3 43168.5 lineto
stroke
newpath
62972 43380.9 moveto
63396.7 43380.9 lineto
stroke
newpath
63184.3 42244.8 moveto
63184.3 41820.1 lineto
stroke
newpath
62972 42032.5 moveto
63396.7 42032.5 lineto
stroke
newpath
67229.5 51683.5 moveto
67229.5 51258.8 lineto
stroke
newpath
67017.2 51471.2 moveto
67441.8 51471.2 lineto
stroke
newpath
67229.5 50335.1 moveto
67229.5 49910.4 lineto
stroke
newpath
67017.2 50122.8 moveto
67441.8 50122.8 lineto
stroke
newpath
67229.5 48986.7 moveto
67229.5 48562.1 lineto
stroke
newpath
67017.2 48774.4 moveto
67441.8 48774.4 lineto
stroke
newpath
67229.5 47638.4 moveto
67229.5 47213.7 lineto
stroke
newpath
67017.2 47426 moveto
67441.8 47426 lineto
stroke
newpath
67229.5 46290 moveto
67229.5 45865.3 lineto
stroke
newpath
67017.2 46077.6 moveto
67441.8 46077.6 lineto
stroke
newpath
67229.5 44941.6 moveto
67229.5 44516.9 lineto
stroke
newpath
67017.2 44729.2 moveto
67441.8 44729.2 lineto
stroke
newpath
67229.5 43593.2 moveto
67229.5 43168.5 lineto
stroke
newpath
67017.2 43380.9 moveto
67441.8 43380.9 lineto
stroke
newpath
67229.5 42244.8 moveto
67229.5 41820.1 lineto
stroke
newpath
67017.2 42032.5 moveto
67441.8 42032.5 lineto
stroke
newpath
86106.9 51683.5 moveto
86106.9 51258.8 lineto
stroke
newpath
85894.6 51471.2 moveto
86319.2 51471.2 lineto
stroke
newpath
86106.9 50335.1 moveto
86106.9 49910.4 lineto
stroke
newpath
85894.6 50122.8 moveto
86319.2 50122.8 lineto
stroke
newpath
86106.9 48986.7 moveto
86106.9 48562.1 lineto
stroke
newpath
85894.6 48774.4 moveto
86319.2 48774.4 lineto
stroke
newpath
86106.9 47638.4 moveto
86106.9 47213.7 lineto
stroke
newpath
85894.6 47426 moveto
86319.2 47426 lineto
stroke
newpath
86106.9 46290 moveto
86106.9 45865.3 lineto
stroke
newpath
85894.6 46077.6 moveto
86319.2 46077.6 lineto
stroke
newpath
86106.9 44941.6 moveto
86106.9 44516.9 lineto
stroke
newpath
85894.6 44729.2 moveto
86319.2 44729.2 lineto
stroke
newpath
86106.9 43593.2 moveto
86106.9 43168.5 lineto
stroke
newpath
85894.6 43380.9 moveto
86319.2 43380.9 lineto
stroke
newpath
86106.9 42244.8 moveto
86106.9 41820.1 lineto
stroke
newpath
85894.6 42032.5 moveto
86319.2 42032.5 lineto
stroke
newpath
90152 51683.5 moveto
90152 51258.8 lineto
stroke
newpath
89939.7 51471.2 moveto
90364.4 51471.2 lineto
stroke
newpath
90152 50335.1 moveto
90152 49910.4 lineto
stroke
newpath
89939.7 50122.8 moveto
90364.4 50122.8 lineto
stroke
newpath
90152 48986.7 moveto
90152 48562.1 lineto
stroke
newpath
89939.7 48774.4 moveto
90364.4 48774.4 lineto
stroke
newpath
90152 47638.4 moveto
90152 47213.7 lineto
stroke
newpath
89939.7 47426 moveto
90364.4 47426 lineto
stroke
newpath
90152 46290 moveto
90152 45865.3 lineto
stroke
newpath
89939.7 46077.6 moveto
90364.4 46077.6 lineto
stroke
newpath
90152 44941.6 moveto
90152 44516.9 lineto
stroke
newpath
89939.7 44729.2 moveto
90364.4 44729.2 lineto
stroke
newpath
90152 43593.2 moveto
90152 43168.5 lineto
stroke
newpath
89939.7 43380.9 moveto
90364.4 43380.9 lineto
stroke
newpath
90152 42244.8 moveto
90152 41820.1 lineto
stroke
newpath
89939.7 42032.5 moveto
90364.4 42032.5 lineto
stroke
newpath
17339.3 51683.5 moveto
17339.3 51258.8 lineto
stroke
newpath
17126.9 51471.2 moveto
17551.6 51471.2 lineto
stroke
newpath
17339.3 50335.1 moveto
17339.3 49910.4 lineto
stroke
newpath
17126.9 50122.8 moveto
17551.6 50122.8 lineto
stroke
newpath
17339.3 48986.7 moveto
17339.3 48562.1 lineto
stroke
newpath
17126.9 48774.4 moveto
17551.6 48774.4 lineto
stroke
newpath
17339.3 47638.4 moveto
17339.3 47213.7 lineto
stroke
newpath
17126.9 47426 moveto
17551.6 47426 lineto
stroke
newpath
17339.3 46290 moveto
17339.3 45865.3 lineto
stroke
newpath
17126.9 46077.6 moveto
17551.6 46077.6 lineto
stroke
newpath
17339.3 44941.6 moveto
17339.3 44516.9 lineto
stroke
newpath
17126.9 44729.2 moveto
17551.6 44729.2 lineto
stroke
newpath
17339.3 43593.2 moveto
17339.3 43168.5 lineto
stroke
newpath
17126.9 43380.9 moveto
17551.6 43380.9 lineto
stroke
newpath
17339.3 42244.8 moveto
17339.3 41820.1 lineto
stroke
newpath
17126.9 42032.5 moveto
17551.6 42032.5 lineto
stroke
newpath
21384.4 51683.5 moveto
21384.4 51258.8 lineto
stroke
newpath
21172.1 51471.2 moveto
21596.8 51471.2 lineto
stroke
newpath
21384.4 50335.1 moveto
21384.4 49910.4 lineto
stroke
newpath
21172.1 50122.8 moveto
21596.8 50122.8 lineto
stroke
newpath
21384.4 48986.7 moveto
21384.4 48562.1 lineto
stroke
newpath
21172.1 48774.4 moveto
21596.8 48774.4 lineto
stroke
newpath
21384.4 47638.4 moveto
21384.4 47213.7 lineto
stroke
newpath
21172.1 47426 moveto
21596.8 47426 lineto
stroke
newpath
21384.4 46290 moveto
21384.4 45865.3 lineto
stroke
newpath
21172.1 46077.6 moveto
21596.8 46077.6 lineto
stroke
newpath
21384.4 44941.6 moveto
21384.4 44516.9 lineto
stroke
newpath
21172.1 44729.2 moveto
21596.8 44729.2 lineto
stroke
newpath
21384.4 43593.2 moveto
21384.4 43168.5 lineto
stroke
newpath
21172.1 43380.9 moveto
21596.8 43380.9 lineto
stroke
newpath
21384.4 42244.8 moveto
21384.4 41820.1 lineto
stroke
newpath
21172.1 42032.5 moveto
21596.8 42032.5 lineto
stroke
newpath
97568.2 51683.5 moveto
97568.2 51258.8 lineto
stroke
newpath
97355.8 51471.2 moveto
97780.5 51471.2 lineto
stroke
newpath
97568.2 50335.1 moveto
97568.2 49910.4 lineto
stroke
newpath
97355.8 50122.8 moveto
97780.5 50122.8 lineto
stroke
newpath
97568.2 48986.7 moveto
97568.2 48562.1 lineto
stroke
newpath
97355.8 48774.4 moveto
97780.5 48774.4 lineto
stroke
newpath
97568.2 47638.4 moveto
97568.2 47213.7 lineto
stroke
newpath
97355.8 47426 moveto
97780.5 47426 lineto
stroke
newpath
97568.2 46290 moveto
97568.2 45865.3 lineto
stroke
newpath
97355.8 46077.6 moveto
97780.5 46077.6 lineto
stroke
newpath
97568.2 44941.6 moveto
97568.2 44516.9 lineto
stroke
newpath
97355.8 44729.2 moveto
97780.5 44729.2 lineto
stroke
newpath
97568.2 43593.2 moveto
97568.2 43168.5 lineto
stroke
newpath
97355.8 43380.9 moveto
97780.5 43380.9 lineto
stroke
newpath
97568.2 42244.8 moveto
97568.2 41820.1 lineto
stroke
newpath
97355.8 42032.5 moveto
97780.5 42032.5 lineto
stroke
newpath
101613 51683.5 moveto
101613 51258.8 lineto
stroke
newpath
101401 51471.2 moveto
101826 51471.2 lineto
stroke
newpath
101613 50335.1 moveto
101613 49910.4 lineto
stroke
newpath
101401 50122.8 moveto
101826 50122.8 lineto
stroke
newpath
101613 48986.7 moveto
101613 48562.1 lineto
stroke
newpath
101401 48774.4 moveto
101826 48774.4 lineto
stroke
newpath
101613 47638.4 moveto
101613 47213.7 lineto
stroke
newpath
101401 47426 moveto
101826 47426 lineto
stroke
newpath
101613 46290 moveto
101613 45865.3 lineto
stroke
newpath
101401 46077.6 moveto
101826 46077.6 lineto
stroke
newpath
101613 44941.6 moveto
101613 44516.9 lineto
stroke
newpath
101401 44729.2 moveto
101826 44729.2 lineto
stroke
newpath
101613 43593.2 moveto
101613 43168.5 lineto
stroke
newpath
101401 43380.9 moveto
101826 43380.9 lineto
stroke
newpath
101613 42244.8 moveto
101613 41820.1 lineto
stroke
newpath
101401 42032.5 moveto
101826 42032.5 lineto
stroke
newpath
97568.2 74606.1 moveto
97568.2 74181.4 lineto
stroke
newpath
97355.8 74393.7 moveto
97780.5 74393.7 lineto
stroke
newpath
97568.2 73257.7 moveto
97568.2 72833 lineto
stroke
newpath
97355.8 73045.3 moveto
97780.5 73045.3 lineto
stroke
newpath
97568.2 71909.3 moveto
97568.2 71484.6 lineto
stroke
newpath
97355.8 71696.9 moveto
97780.5 71696.9 lineto
stroke
newpath
97568.2 70560.9 moveto
97568.2 70136.2 lineto
stroke
newpath
97355.8 70348.6 moveto
97780.5 70348.6 lineto
stroke
newpath
97568.2 69212.5 moveto
97568.2 68787.8 lineto
stroke
newpath
97355.8 69000.2 moveto
97780.5 69000.2 lineto
stroke
newpath
97568.2 67864.1 moveto
97568.2 67439.4 lineto
stroke
newpath
97355.8 67651.8 moveto
97780.5 67651.8 lineto
stroke
newpath
97568.2 66515.8 moveto
97568.2 66091.1 lineto
stroke
newpath
97355.8 66303.4 moveto
97780.5 66303.4 lineto
stroke
newpath
97568.2 65167.4 moveto
97568.2 64742.7 lineto
stroke
newpath
97355.8 64955 moveto
97780.5 64955 lineto
stroke
newpath
101613 74606.1 moveto
101613 74181.4 lineto
stroke
newpath
101401 74393.7 moveto
101826 74393.7 lineto
stroke
newpath
101613 73257.7 moveto
101613 72833 lineto
stroke
newpath
101401 73045.3 moveto
101826 73045.3 lineto
stroke
newpath
101613 71909.3 moveto
101613 71484.6 lineto
stroke
newpath
101401 71696.9 moveto
101826 71696.9 lineto
stroke
newpath
101613 70560.9 moveto
101613 70136.2 lineto
stroke
newpath
101401 70348.6 moveto
101826 70348.6 lineto
stroke
newpath
101613 69212.5 moveto
101613 68787.8 lineto
stroke
newpath
101401 69000.2 moveto
101826 69000.2 lineto
stroke
newpath
101613 67864.1 moveto
101613 67439.4 lineto
stroke
newpath
101401 67651.8 moveto
101826 67651.8 lineto
stroke
newpath
101613 66515.8 moveto
101613 66091.1 lineto
stroke
newpath
101401 66303.4 moveto
101826 66303.4 lineto
stroke
newpath
101613 65167.4 moveto
101613 64742.7 lineto
stroke
newpath
101401 64955 moveto
101826 64955 lineto
stroke
newpath
74645.6 51683.5 moveto
74645.6 51258.8 lineto
stroke
newpath
74433.3 51471.2 moveto
74858 51471.2 lineto
stroke
newpath
74645.6 50335.1 moveto
74645.6 49910.4 lineto
stroke
newpath
74433.3 50122.8 moveto
74858 50122.8 lineto
stroke
newpath
74645.6 48986.7 moveto
74645.6 48562.1 lineto
stroke
newpath
74433.3 48774.4 moveto
74858 48774.4 lineto
stroke
newpath
74645.6 47638.4 moveto
74645.6 47213.7 lineto
stroke
newpath
74433.3 47426 moveto
74858 47426 lineto
stroke
newpath
74645.6 46290 moveto
74645.6 45865.3 lineto
stroke
newpath
74433.3 46077.6 moveto
74858 46077.6 lineto
stroke
newpath
74645.6 44941.6 moveto
74645.6 44516.9 lineto
stroke
newpath
74433.3 44729.2 moveto
74858 44729.2 lineto
stroke
newpath
74645.6 43593.2 moveto
74645.6 43168.5 lineto
stroke
newpath
74433.3 43380.9 moveto
74858 43380.9 lineto
stroke
newpath
74645.6 42244.8 moveto
74645.6 41820.1 lineto
stroke
newpath
74433.3 42032.5 moveto
74858 42032.5 lineto
stroke
newpath
78690.8 51683.5 moveto
78690.8 51258.8 lineto
stroke
newpath
78478.4 51471.2 moveto
78903.1 51471.2 lineto
stroke
newpath
78690.8 50335.1 moveto
78690.8 49910.4 lineto
stroke
newpath
78478.4 50122.8 moveto
78903.1 50122.8 lineto
stroke
newpath
78690.8 48986.7 moveto
78690.8 48562.1 lineto
stroke
newpath
78478.4 48774.4 moveto
78903.1 48774.4 lineto
stroke
newpath
78690.8 47638.4 moveto
78690.8 47213.7 lineto
stroke
newpath
78478.4 47426 moveto
78903.1 47426 lineto
stroke
newpath
78690.8 46290 moveto
78690.8 45865.3 lineto
stroke
newpath
78478.4 46077.6 moveto
78903.1 46077.6 lineto
stroke
newpath
78690.8 44941.6 moveto
78690.8 44516.9 lineto
stroke
newpath
78478.4 44729.2 moveto
78903.1 44729.2 lineto
stroke
newpath
78690.8 43593.2 moveto
78690.8 43168.5 lineto
stroke
newpath
78478.4 43380.9 moveto
78903.1 43380.9 lineto
stroke
newpath
78690.8 42244.8 moveto
78690.8 41820.1 lineto
stroke
newpath
78478.4 42032.5 moveto
78903.1 42032.5 lineto
stroke
newpath
17339.3 74606.1 moveto
17339.3 74181.4 lineto
stroke
newpath
17126.9 74393.7 moveto
17551.6 74393.7 lineto
stroke
newpath
17339.3 73257.7 moveto
17339.3 72833 lineto
stroke
newpath
17126.9 73045.3 moveto
17551.6 73045.3 lineto
stroke
newpath
17339.3 71909.3 moveto
17339.3 71484.6 lineto
stroke
newpath
17126.9 71696.9 moveto
17551.6 71696.9 lineto
stroke
newpath
17339.3 70560.9 moveto
17339.3 70136.2 lineto
stroke
newpath
17126.9 70348.6 moveto
17551.6 70348.6 lineto
stroke
newpath
17339.3 69212.5 moveto
17339.3 68787.8 lineto
stroke
newpath
17126.9 69000.2 moveto
17551.6 69000.2 lineto
stroke
newpath
17339.3 67864.1 moveto
17339.3 67439.4 lineto
stroke
newpath
17126.9 67651.8 moveto
17551.6 67651.8 lineto
stroke
newpath
17339.3 66515.8 moveto
17339.3 66091.1 lineto
stroke
newpath
17126.9 66303.4 moveto
17551.6 66303.4 lineto
stroke
newpath
17339.3 65167.4 moveto
17339.3 64742.7 lineto
stroke
newpath
17126.9 64955 moveto
17551.6 64955 lineto
stroke
newpath
21384.4 74606.1 moveto
21384.4 74181.4 lineto
stroke
newpath
21172.1 74393.7 moveto
21596.8 74393.7 lineto
stroke
newpath
21384.4 73257.7 moveto
21384.4 72833 lineto
stroke
newpath
21172.1 73045.3 moveto
21596.8 73045.3 lineto
stroke
newpath
21384.4 71909.3 moveto
21384.4 71484.6 lineto
stroke
newpath
21172.1 71696.9 moveto
21596.8 71696.9 lineto
stroke
newpath
21384.4 70560.9 moveto
21384.4 70136.2 lineto
stroke
newpath
21172.1 70348.6 moveto
21596.8 70348.6 lineto
stroke
newpath
21384.4 69212.5 moveto
21384.4 68787.8 lineto
stroke
newpath
21172.1 69000.2 moveto
21596.8 69000.2 lineto
stroke
newpath
21384.4 67864.1 moveto
21384.4 67439.4 lineto
stroke
newpath
21172.1 67651.8 moveto
21596.8 67651.8 lineto
stroke
newpath
21384.4 66515.8 moveto
21384.4 66091.1 lineto
stroke
newpath
21172.1 66303.4 moveto
21596.8 66303.4 lineto
stroke
newpath
21384.4 65167.4 moveto
21384.4 64742.7 lineto
stroke
newpath
21172.1 64955 moveto
21596.8 64955 lineto
stroke
newpath
28800.5 74606.1 moveto
28800.5 74181.4 lineto
stroke
newpath
28588.2 74393.7 moveto
29012.9 74393.7 lineto
stroke
newpath
28800.5 73257.7 moveto
28800.5 72833 lineto
stroke
newpath
28588.2 73045.3 moveto
29012.9 73045.3 lineto
stroke
newpath
28800.5 71909.3 moveto
28800.5 71484.6 lineto
stroke
newpath
28588.2 71696.9 moveto
29012.9 71696.9 lineto
stroke
newpath
28800.5 70560.9 moveto
28800.5 70136.2 lineto
stroke
newpath
28588.2 70348.6 moveto
29012.9 70348.6 lineto
stroke
newpath
28800.5 69212.5 moveto
28800.5 68787.8 lineto
stroke
newpath
28588.2 69000.2 moveto
29012.9 69000.2 lineto
stroke
newpath
28800.5 67864.1 moveto
28800.5 67439.4 lineto
stroke
newpath
28588.2 67651.8 moveto
29012.9 67651.8 lineto
stroke
newpath
28800.5 66515.8 moveto
28800.5 66091.1 lineto
stroke
newpath
28588.2 66303.4 moveto
29012.9 66303.4 lineto
stroke
newpath
28800.5 65167.4 moveto
28800.5 64742.7 lineto
stroke
newpath
28588.2 64955 moveto
29012.9 64955 lineto
stroke
newpath
32845.7 74606.1 moveto
32845.7 74181.4 lineto
stroke
newpath
32633.3 74393.7 moveto
33058 74393.7 lineto
stroke
newpath
32845.7 73257.7 moveto
32845.7 72833 lineto
stroke
newpath
32633.3 73045.3 moveto
33058 73045.3 lineto
stroke
newpath
32845.7 71909.3 moveto
32845.7 71484.6 lineto
stroke
newpath
32633.3 71696.9 moveto
33058 71696.9 lineto
stroke
newpath
32845.7 70560.9 moveto
32845.7 70136.2 lineto
stroke
newpath
32633.3 70348.6 moveto
33058 70348.6 lineto
stroke
newpath
32845.7 69212.5 moveto
32845.7 68787.8 lineto
stroke
newpath
32633.3 69000.2 moveto
33058 69000.2 lineto
stroke
newpath
32845.7 67864.1 moveto
32845.7 67439.4 lineto
stroke
newpath
32633.3 67651.8 moveto
33058 67651.8 lineto
stroke
newpath
32845.7 66515.8 moveto
32845.7 66091.1 lineto
stroke
newpath
32633.3 66303.4 moveto
33058 66303.4 lineto
stroke
newpath
32845.7 65167.4 moveto
32845.7 64742.7 lineto
stroke
newpath
32633.3 64955 moveto
33058 64955 lineto
stroke
newpath
40261.8 51683.5 moveto
40261.8 51258.8 lineto
stroke
newpath
40049.5 51471.2 moveto
40474.1 51471.2 lineto
stroke
newpath
40261.8 50335.1 moveto
40261.8 49910.4 lineto
stroke
newpath
40049.5 50122.8 moveto
40474.1 50122.8 lineto
stroke
newpath
40261.8 48986.7 moveto
40261.8 48562.1 lineto
stroke
newpath
40049.5 48774.4 moveto
40474.1 48774.4 lineto
stroke
newpath
40261.8 47638.4 moveto
40261.8 47213.7 lineto
stroke
newpath
40049.5 47426 moveto
40474.1 47426 lineto
stroke
newpath
40261.8 46290 moveto
40261.8 45865.3 lineto
stroke
newpath
40049.5 46077.6 moveto
40474.1 46077.6 lineto
stroke
newpath
40261.8 44941.6 moveto
40261.8 44516.9 lineto
stroke
newpath
40049.5 44729.2 moveto
40474.1 44729.2 lineto
stroke
newpath
40261.8 43593.2 moveto
40261.8 43168.5 lineto
stroke
newpath
40049.5 43380.9 moveto
40474.1 43380.9 lineto
stroke
newpath
40261.8 42244.8 moveto
40261.8 41820.1 lineto
stroke
newpath
40049.5 42032.5 moveto
40474.1 42032.5 lineto
stroke
newpath
44307 51683.5 moveto
44307 51258.8 lineto
stroke
newpath
44094.6 51471.2 moveto
44519.3 51471.2 lineto
stroke
newpath
44307 50335.1 moveto
44307 49910.4 lineto
stroke
newpath
44094.6 50122.8 moveto
44519.3 50122.8 lineto
stroke
newpath
44307 48986.7 moveto
44307 48562.1 lineto
stroke
newpath
44094.6 48774.4 moveto
44519.3 48774.4 lineto
stroke
newpath
44307 47638.4 moveto
44307 47213.7 lineto
stroke
newpath
44094.6 47426 moveto
44519.3 47426 lineto
stroke
newpath
44307 46290 moveto
44307 45865.3 lineto
stroke
newpath
44094.6 46077.6 moveto
44519.3 46077.6 lineto
stroke
newpath
44307 44941.6 moveto
44307 44516.9 lineto
stroke
newpath
44094.6 44729.2 moveto
44519.3 44729.2 lineto
stroke
newpath
44307 43593.2 moveto
44307 43168.5 lineto
stroke
newpath
44094.6 43380.9 moveto
44519.3 43380.9 lineto
stroke
newpath
44307 42244.8 moveto
44307 41820.1 lineto
stroke
newpath
44094.6 42032.5 moveto
44519.3 42032.5 lineto
stroke
newpath
40261.8 74606.1 moveto
40261.8 74181.4 lineto
stroke
newpath
40049.5 74393.7 moveto
40474.1 74393.7 lineto
stroke
newpath
40261.8 73257.7 moveto
40261.8 72833 lineto
stroke
newpath
40049.5 73045.3 moveto
40474.1 73045.3 lineto
stroke
newpath
40261.8 71909.3 moveto
40261.8 71484.6 lineto
stroke
newpath
40049.5 71696.9 moveto
40474.1 71696.9 lineto
stroke
newpath
40261.8 70560.9 moveto
40261.8 70136.2 lineto
stroke
newpath
40049.5 70348.6 moveto
40474.1 70348.6 lineto
stroke
newpath
40261.8 69212.5 moveto
40261.8 68787.8 lineto
stroke
newpath
40049.5 69000.2 moveto
40474.1 69000.2 lineto
stroke
newpath
40261.8 67864.1 moveto
40261.8 67439.4 lineto
stroke
newpath
40049.5 67651.8 moveto
40474.1 67651.8 lineto
stroke
newpath
40261.8 66515.8 moveto
40261.8 66091.1 lineto
stroke
newpath
40049.5 66303.4 moveto
40474.1 66303.4 lineto
stroke
newpath
40261.8 65167.4 moveto
40261.8 64742.7 lineto
stroke
newpath
40049.5 64955 moveto
40474.1 64955 lineto
stroke
newpath
44307 74606.1 moveto
44307 74181.4 lineto
stroke
newpath
44094.6 74393.7 moveto
44519.3 74393.7 lineto
stroke
newpath
44307 73257.7 moveto
44307 72833 lineto
stroke
newpath
44094.6 73045.3 moveto
44519.3 73045.3 lineto
stroke
newpath
44307 71909.3 moveto
44307 71484.6 lineto
stroke
newpath
44094.6 71696.9 moveto
44519.3 71696.9 lineto
stroke
newpath
44307 70560.9 moveto
44307 70136.2 lineto
stroke
newpath
44094.6 70348.6 moveto
44519.3 70348.6 lineto
stroke
newpath
44307 69212.5 moveto
44307 68787.8 lineto
stroke
newpath
44094.6 69000.2 moveto
44519.3 69000.2 lineto
stroke
newpath
44307 67864.1 moveto
44307 67439.4 lineto
stroke
newpath
44094.6 67651.8 moveto
44519.3 67651.8 lineto
stroke
newpath
44307 66515.8 moveto
44307 66091.1 lineto
stroke
newpath
44094.6 66303.4 moveto
44519.3 66303.4 lineto
stroke
newpath
44307 65167.4 moveto
44307 64742.7 lineto
stroke
newpath
44094.6 64955 moveto
44519.3 64955 lineto
stroke
newpath
73484.9 62070.6 moveto
73484.9 62445.9 lineto
73109.5 62445.9 lineto
73109.5 62070.6 lineto
73484.9 62070.6 lineto
poly0
newpath
73484.9 53980.3 moveto
73484.9 54355.6 lineto
73109.5 54355.6 lineto
73109.5 53980.3 lineto
73484.9 53980.3 lineto
poly0
newpath
74833.3 62070.6 moveto
74833.3 62445.9 lineto
74457.9 62445.9 lineto
74457.9 62070.6 lineto
74833.3 62070.6 lineto
poly0
newpath
74833.3 53980.3 moveto
74833.3 54355.6 lineto
74457.9 54355.6 lineto
74457.9 53980.3 lineto
74833.3 53980.3 lineto
poly0
newpath
76181.7 62070.6 moveto
76181.7 62445.9 lineto
75806.3 62445.9 lineto
75806.3 62070.6 lineto
76181.7 62070.6 lineto
poly0
newpath
76181.7 53980.3 moveto
76181.7 54355.6 lineto
75806.3 54355.6 lineto
75806.3 53980.3 lineto
76181.7 53980.3 lineto
poly0
newpath
77530.1 62070.6 moveto
77530.1 62445.9 lineto
77154.7 62445.9 lineto
77154.7 62070.6 lineto
77530.1 62070.6 lineto
poly0
newpath
77530.1 53980.3 moveto
77530.1 54355.6 lineto
77154.7 54355.6 lineto
77154.7 53980.3 lineto
77530.1 53980.3 lineto
poly0
newpath
78878.5 62070.6 moveto
78878.5 62445.9 lineto
78503.1 62445.9 lineto
78503.1 62070.6 lineto
78878.5 62070.6 lineto
poly0
newpath
78878.5 53980.3 moveto
78878.5 54355.6 lineto
78503.1 54355.6 lineto
78503.1 53980.3 lineto
78878.5 53980.3 lineto
poly0
newpath
80226.9 62070.6 moveto
80226.9 62445.9 lineto
79851.5 62445.9 lineto
79851.5 62070.6 lineto
80226.9 62070.6 lineto
poly0
newpath
80226.9 53980.3 moveto
80226.9 54355.6 lineto
79851.5 54355.6 lineto
79851.5 53980.3 lineto
80226.9 53980.3 lineto
poly0
newpath
81575.2 62070.6 moveto
81575.2 62445.9 lineto
81199.9 62445.9 lineto
81199.9 62070.6 lineto
81575.2 62070.6 lineto
poly0
newpath
81575.2 53980.3 moveto
81575.2 54355.6 lineto
81199.9 54355.6 lineto
81199.9 53980.3 lineto
81575.2 53980.3 lineto
poly0
newpath
82923.6 62070.6 moveto
82923.6 62445.9 lineto
82548.2 62445.9 lineto
82548.2 62070.6 lineto
82923.6 62070.6 lineto
poly0
newpath
82923.6 53980.3 moveto
82923.6 54355.6 lineto
82548.2 54355.6 lineto
82548.2 53980.3 lineto
82923.6 53980.3 lineto
poly0
newpath
27639.8 62070.6 moveto
27639.8 62445.9 lineto
27264.5 62445.9 lineto
27264.5 62070.6 lineto
27639.8 62070.6 lineto
poly0
newpath
27639.8 53980.3 moveto
27639.8 54355.6 lineto
27264.5 54355.6 lineto
27264.5 53980.3 lineto
27639.8 53980.3 lineto
poly0
newpath
28988.2 62070.6 moveto
28988.2 62445.9 lineto
28612.8 62445.9 lineto
28612.8 62070.6 lineto
28988.2 62070.6 lineto
poly0
newpath
28988.2 53980.3 moveto
28988.2 54355.6 lineto
28612.8 54355.6 lineto
28612.8 53980.3 lineto
28988.2 53980.3 lineto
poly0
newpath
30336.6 62070.6 moveto
30336.6 62445.9 lineto
29961.2 62445.9 lineto
29961.2 62070.6 lineto
30336.6 62070.6 lineto
poly0
newpath
30336.6 53980.3 moveto
30336.6 54355.6 lineto
29961.2 54355.6 lineto
29961.2 53980.3 lineto
30336.6 53980.3 lineto
poly0
newpath
31685 62070.6 moveto
31685 62445.9 lineto
31309.6 62445.9 lineto
31309.6 62070.6 lineto
31685 62070.6 lineto
poly0
newpath
31685 53980.3 moveto
31685 54355.6 lineto
31309.6 54355.6 lineto
31309.6 53980.3 lineto
31685 53980.3 lineto
poly0
newpath
33033.4 62070.6 moveto
33033.4 62445.9 lineto
32658 62445.9 lineto
32658 62070.6 lineto
33033.4 62070.6 lineto
poly0
newpath
33033.4 53980.3 moveto
33033.4 54355.6 lineto
32658 54355.6 lineto
32658 53980.3 lineto
33033.4 53980.3 lineto
poly0
newpath
34381.8 62070.6 moveto
34381.8 62445.9 lineto
34006.4 62445.9 lineto
34006.4 62070.6 lineto
34381.8 62070.6 lineto
poly0
newpath
34381.8 53980.3 moveto
34381.8 54355.6 lineto
34006.4 54355.6 lineto
34006.4 53980.3 lineto
34381.8 53980.3 lineto
poly0
newpath
35730.1 62070.6 moveto
35730.1 62445.9 lineto
35354.8 62445.9 lineto
35354.8 62070.6 lineto
35730.1 62070.6 lineto
poly0
newpath
35730.1 53980.3 moveto
35730.1 54355.6 lineto
35354.8 54355.6 lineto
35354.8 53980.3 lineto
35730.1 53980.3 lineto
poly0
newpath
37078.5 62070.6 moveto
37078.5 62445.9 lineto
36703.1 62445.9 lineto
36703.1 62070.6 lineto
37078.5 62070.6 lineto
poly0
newpath
37078.5 53980.3 moveto
37078.5 54355.6 lineto
36703.1 54355.6 lineto
36703.1 53980.3 lineto
37078.5 53980.3 lineto
poly0
newpath
50562.4 62070.6 moveto
50562.4 62445.9 lineto
50187 62445.9 lineto
50187 62070.6 lineto
50562.4 62070.6 lineto
poly0
newpath
50562.4 53980.3 moveto
50562.4 54355.6 lineto
50187 54355.6 lineto
50187 53980.3 lineto
50562.4 53980.3 lineto
poly0
newpath
51910.8 62070.6 moveto
51910.8 62445.9 lineto
51535.4 62445.9 lineto
51535.4 62070.6 lineto
51910.8 62070.6 lineto
poly0
newpath
51910.8 53980.3 moveto
51910.8 54355.6 lineto
51535.4 54355.6 lineto
51535.4 53980.3 lineto
51910.8 53980.3 lineto
poly0
newpath
53259.1 62070.6 moveto
53259.1 62445.9 lineto
52883.8 62445.9 lineto
52883.8 62070.6 lineto
53259.1 62070.6 lineto
poly0
newpath
53259.1 53980.3 moveto
53259.1 54355.6 lineto
52883.8 54355.6 lineto
52883.8 53980.3 lineto
53259.1 53980.3 lineto
poly0
newpath
54607.5 62070.6 moveto
54607.5 62445.9 lineto
54232.2 62445.9 lineto
54232.2 62070.6 lineto
54607.5 62070.6 lineto
poly0
newpath
54607.5 53980.3 moveto
54607.5 54355.6 lineto
54232.2 54355.6 lineto
54232.2 53980.3 lineto
54607.5 53980.3 lineto
poly0
newpath
55955.9 62070.6 moveto
55955.9 62445.9 lineto
55580.5 62445.9 lineto
55580.5 62070.6 lineto
55955.9 62070.6 lineto
poly0
newpath
55955.9 53980.3 moveto
55955.9 54355.6 lineto
55580.5 54355.6 lineto
55580.5 53980.3 lineto
55955.9 53980.3 lineto
poly0
newpath
57304.3 62070.6 moveto
57304.3 62445.9 lineto
56928.9 62445.9 lineto
56928.9 62070.6 lineto
57304.3 62070.6 lineto
poly0
newpath
57304.3 53980.3 moveto
57304.3 54355.6 lineto
56928.9 54355.6 lineto
56928.9 53980.3 lineto
57304.3 53980.3 lineto
poly0
newpath
58652.7 62070.6 moveto
58652.7 62445.9 lineto
58277.3 62445.9 lineto
58277.3 62070.6 lineto
58652.7 62070.6 lineto
poly0
newpath
58652.7 53980.3 moveto
58652.7 54355.6 lineto
58277.3 54355.6 lineto
58277.3 53980.3 lineto
58652.7 53980.3 lineto
poly0
newpath
60001.1 62070.6 moveto
60001.1 62445.9 lineto
59625.7 62445.9 lineto
59625.7 62070.6 lineto
60001.1 62070.6 lineto
poly0
newpath
60001.1 53980.3 moveto
60001.1 54355.6 lineto
59625.7 54355.6 lineto
59625.7 53980.3 lineto
60001.1 53980.3 lineto
poly0
newpath
62023.7 62070.6 moveto
62023.7 62445.9 lineto
61648.3 62445.9 lineto
61648.3 62070.6 lineto
62023.7 62070.6 lineto
poly0
newpath
62023.7 53980.3 moveto
62023.7 54355.6 lineto
61648.3 54355.6 lineto
61648.3 53980.3 lineto
62023.7 53980.3 lineto
poly0
newpath
63372 62070.6 moveto
63372 62445.9 lineto
62996.7 62445.9 lineto
62996.7 62070.6 lineto
63372 62070.6 lineto
poly0
newpath
63372 53980.3 moveto
63372 54355.6 lineto
62996.7 54355.6 lineto
62996.7 53980.3 lineto
63372 53980.3 lineto
poly0
newpath
64720.4 62070.6 moveto
64720.4 62445.9 lineto
64345 62445.9 lineto
64345 62070.6 lineto
64720.4 62070.6 lineto
poly0
newpath
64720.4 53980.3 moveto
64720.4 54355.6 lineto
64345 54355.6 lineto
64345 53980.3 lineto
64720.4 53980.3 lineto
poly0
newpath
66068.8 62070.6 moveto
66068.8 62445.9 lineto
65693.4 62445.9 lineto
65693.4 62070.6 lineto
66068.8 62070.6 lineto
poly0
newpath
66068.8 53980.3 moveto
66068.8 54355.6 lineto
65693.4 54355.6 lineto
65693.4 53980.3 lineto
66068.8 53980.3 lineto
poly0
newpath
67417.2 62070.6 moveto
67417.2 62445.9 lineto
67041.8 62445.9 lineto
67041.8 62070.6 lineto
67417.2 62070.6 lineto
poly0
newpath
67417.2 53980.3 moveto
67417.2 54355.6 lineto
67041.8 54355.6 lineto
67041.8 53980.3 lineto
67417.2 53980.3 lineto
poly0
newpath
68765.6 62070.6 moveto
68765.6 62445.9 lineto
68390.2 62445.9 lineto
68390.2 62070.6 lineto
68765.6 62070.6 lineto
poly0
newpath
68765.6 53980.3 moveto
68765.6 54355.6 lineto
68390.2 54355.6 lineto
68390.2 53980.3 lineto
68765.6 53980.3 lineto
poly0
newpath
70114 62070.6 moveto
70114 62445.9 lineto
69738.6 62445.9 lineto
69738.6 62070.6 lineto
70114 62070.6 lineto
poly0
newpath
70114 53980.3 moveto
70114 54355.6 lineto
69738.6 54355.6 lineto
69738.6 53980.3 lineto
70114 53980.3 lineto
poly0
newpath
71462.3 62070.6 moveto
71462.3 62445.9 lineto
71087 62445.9 lineto
71087 62070.6 lineto
71462.3 62070.6 lineto
poly0
newpath
71462.3 53980.3 moveto
71462.3 54355.6 lineto
71087 54355.6 lineto
71087 53980.3 lineto
71462.3 53980.3 lineto
poly0
newpath
39101.1 62070.6 moveto
39101.1 62445.9 lineto
38725.7 62445.9 lineto
38725.7 62070.6 lineto
39101.1 62070.6 lineto
poly0
newpath
39101.1 53980.3 moveto
39101.1 54355.6 lineto
38725.7 54355.6 lineto
38725.7 53980.3 lineto
39101.1 53980.3 lineto
poly0
newpath
40449.5 62070.6 moveto
40449.5 62445.9 lineto
40074.1 62445.9 lineto
40074.1 62070.6 lineto
40449.5 62070.6 lineto
poly0
newpath
40449.5 53980.3 moveto
40449.5 54355.6 lineto
40074.1 54355.6 lineto
40074.1 53980.3 lineto
40449.5 53980.3 lineto
poly0
newpath
41797.9 62070.6 moveto
41797.9 62445.9 lineto
41422.5 62445.9 lineto
41422.5 62070.6 lineto
41797.9 62070.6 lineto
poly0
newpath
41797.9 53980.3 moveto
41797.9 54355.6 lineto
41422.5 54355.6 lineto
41422.5 53980.3 lineto
41797.9 53980.3 lineto
poly0
newpath
43146.3 62070.6 moveto
43146.3 62445.9 lineto
42770.9 62445.9 lineto
42770.9 62070.6 lineto
43146.3 62070.6 lineto
poly0
newpath
43146.3 53980.3 moveto
43146.3 54355.6 lineto
42770.9 54355.6 lineto
42770.9 53980.3 lineto
43146.3 53980.3 lineto
poly0
newpath
44494.6 62070.6 moveto
44494.6 62445.9 lineto
44119.3 62445.9 lineto
44119.3 62070.6 lineto
44494.6 62070.6 lineto
poly0
newpath
44494.6 53980.3 moveto
44494.6 54355.6 lineto
44119.3 54355.6 lineto
44119.3 53980.3 lineto
44494.6 53980.3 lineto
poly0
newpath
45843 62070.6 moveto
45843 62445.9 lineto
45467.7 62445.9 lineto
45467.7 62070.6 lineto
45843 62070.6 lineto
poly0
newpath
45843 53980.3 moveto
45843 54355.6 lineto
45467.7 54355.6 lineto
45467.7 53980.3 lineto
45843 53980.3 lineto
poly0
newpath
47191.4 62070.6 moveto
47191.4 62445.9 lineto
46816 62445.9 lineto
46816 62070.6 lineto
47191.4 62070.6 lineto
poly0
newpath
47191.4 53980.3 moveto
47191.4 54355.6 lineto
46816 54355.6 lineto
46816 53980.3 lineto
47191.4 53980.3 lineto
poly0
newpath
48539.8 62070.6 moveto
48539.8 62445.9 lineto
48164.4 62445.9 lineto
48164.4 62070.6 lineto
48539.8 62070.6 lineto
poly0
newpath
48539.8 53980.3 moveto
48539.8 54355.6 lineto
48164.4 54355.6 lineto
48164.4 53980.3 lineto
48539.8 53980.3 lineto
poly0
newpath
84946.2 62070.6 moveto
84946.2 62445.9 lineto
84570.8 62445.9 lineto
84570.8 62070.6 lineto
84946.2 62070.6 lineto
poly0
newpath
84946.2 53980.3 moveto
84946.2 54355.6 lineto
84570.8 54355.6 lineto
84570.8 53980.3 lineto
84946.2 53980.3 lineto
poly0
newpath
86294.6 62070.6 moveto
86294.6 62445.9 lineto
85919.2 62445.9 lineto
85919.2 62070.6 lineto
86294.6 62070.6 lineto
poly0
newpath
86294.6 53980.3 moveto
86294.6 54355.6 lineto
85919.2 54355.6 lineto
85919.2 53980.3 lineto
86294.6 53980.3 lineto
poly0
newpath
87643 62070.6 moveto
87643 62445.9 lineto
87267.6 62445.9 lineto
87267.6 62070.6 lineto
87643 62070.6 lineto
poly0
newpath
87643 53980.3 moveto
87643 54355.6 lineto
87267.6 54355.6 lineto
87267.6 53980.3 lineto
87643 53980.3 lineto
poly0
newpath
88991.4 62070.6 moveto
88991.4 62445.9 lineto
88616 62445.9 lineto
88616 62070.6 lineto
88991.4 62070.6 lineto
poly0
newpath
88991.4 53980.3 moveto
88991.4 54355.6 lineto
88616 54355.6 lineto
88616 53980.3 lineto
88991.4 53980.3 lineto
poly0
newpath
90339.7 62070.6 moveto
90339.7 62445.9 lineto
89964.4 62445.9 lineto
89964.4 62070.6 lineto
90339.7 62070.6 lineto
poly0
newpath
90339.7 53980.3 moveto
90339.7 54355.6 lineto
89964.4 54355.6 lineto
89964.4 53980.3 lineto
90339.7 53980.3 lineto
poly0
newpath
91688.1 62070.6 moveto
91688.1 62445.9 lineto
91312.7 62445.9 lineto
91312.7 62070.6 lineto
91688.1 62070.6 lineto
poly0
newpath
91688.1 53980.3 moveto
91688.1 54355.6 lineto
91312.7 54355.6 lineto
91312.7 53980.3 lineto
91688.1 53980.3 lineto
poly0
newpath
93036.5 62070.6 moveto
93036.5 62445.9 lineto
92661.1 62445.9 lineto
92661.1 62070.6 lineto
93036.5 62070.6 lineto
poly0
newpath
93036.5 53980.3 moveto
93036.5 54355.6 lineto
92661.1 54355.6 lineto
92661.1 53980.3 lineto
93036.5 53980.3 lineto
poly0
newpath
94384.9 62070.6 moveto
94384.9 62445.9 lineto
94009.5 62445.9 lineto
94009.5 62070.6 lineto
94384.9 62070.6 lineto
poly0
newpath
94384.9 53980.3 moveto
94384.9 54355.6 lineto
94009.5 54355.6 lineto
94009.5 53980.3 lineto
94384.9 53980.3 lineto
poly0
newpath
96407.5 62070.6 moveto
96407.5 62445.9 lineto
96032.1 62445.9 lineto
96032.1 62070.6 lineto
96407.5 62070.6 lineto
poly0
newpath
96407.5 53980.3 moveto
96407.5 54355.6 lineto
96032.1 54355.6 lineto
96032.1 53980.3 lineto
96407.5 53980.3 lineto
poly0
newpath
97755.9 62070.6 moveto
97755.9 62445.9 lineto
97380.5 62445.9 lineto
97380.5 62070.6 lineto
97755.9 62070.6 lineto
poly0
newpath
97755.9 53980.3 moveto
97755.9 54355.6 lineto
97380.5 54355.6 lineto
97380.5 53980.3 lineto
97755.9 53980.3 lineto
poly0
newpath
99104.2 62070.6 moveto
99104.2 62445.9 lineto
98728.9 62445.9 lineto
98728.9 62070.6 lineto
99104.2 62070.6 lineto
poly0
newpath
99104.2 53980.3 moveto
99104.2 54355.6 lineto
98728.9 54355.6 lineto
98728.9 53980.3 lineto
99104.2 53980.3 lineto
poly0
newpath
100453 62070.6 moveto
100453 62445.9 lineto
100077 62445.9 lineto
100077 62070.6 lineto
100453 62070.6 lineto
poly0
newpath
100453 53980.3 moveto
100453 54355.6 lineto
100077 54355.6 lineto
100077 53980.3 lineto
100453 53980.3 lineto
poly0
newpath
101801 62070.6 moveto
101801 62445.9 lineto
101426 62445.9 lineto
101426 62070.6 lineto
101801 62070.6 lineto
poly0
newpath
101801 53980.3 moveto
101801 54355.6 lineto
101426 54355.6 lineto
101426 53980.3 lineto
101801 53980.3 lineto
poly0
newpath
103149 62070.6 moveto
103149 62445.9 lineto
102774 62445.9 lineto
102774 62070.6 lineto
103149 62070.6 lineto
poly0
newpath
103149 53980.3 moveto
103149 54355.6 lineto
102774 54355.6 lineto
102774 53980.3 lineto
103149 53980.3 lineto
poly0
newpath
104498 62070.6 moveto
104498 62445.9 lineto
104122 62445.9 lineto
104122 62070.6 lineto
104498 62070.6 lineto
poly0
newpath
104498 53980.3 moveto
104498 54355.6 lineto
104122 54355.6 lineto
104122 53980.3 lineto
104498 53980.3 lineto
poly0
newpath
105846 62070.6 moveto
105846 62445.9 lineto
105471 62445.9 lineto
105471 62070.6 lineto
105846 62070.6 lineto
poly0
newpath
105846 53980.3 moveto
105846 54355.6 lineto
105471 54355.6 lineto
105471 53980.3 lineto
105846 53980.3 lineto
poly0
newpath
11459.2 62070.6 moveto
11459.2 62445.9 lineto
11083.8 62445.9 lineto
11083.8 62070.6 lineto
11459.2 62070.6 lineto
poly0
newpath
11459.2 60722.2 moveto
11459.2 61097.6 lineto
11083.8 61097.6 lineto
11083.8 60722.2 lineto
11459.2 60722.2 lineto
poly0
newpath
11459.2 59373.8 moveto
11459.2 59749.2 lineto
11083.8 59749.2 lineto
11083.8 59373.8 lineto
11459.2 59373.8 lineto
poly0
newpath
11459.2 58025.4 moveto
11459.2 58400.8 lineto
11083.8 58400.8 lineto
11083.8 58025.4 lineto
11459.2 58025.4 lineto
poly0
newpath
11459.2 56677 moveto
11459.2 57052.4 lineto
11083.8 57052.4 lineto
11083.8 56677 lineto
11459.2 56677 lineto
poly0
newpath
11459.2 55328.6 moveto
11459.2 55704 lineto
11083.8 55704 lineto
11083.8 55328.6 lineto
11459.2 55328.6 lineto
poly0
newpath
11459.2 53980.3 moveto
11459.2 54355.6 lineto
11083.8 54355.6 lineto
11083.8 53980.3 lineto
11459.2 53980.3 lineto
poly0
newpath
16178.6 62070.6 moveto
16178.6 62445.9 lineto
15803.2 62445.9 lineto
15803.2 62070.6 lineto
16178.6 62070.6 lineto
poly0
newpath
16178.6 53980.3 moveto
16178.6 54355.6 lineto
15803.2 54355.6 lineto
15803.2 53980.3 lineto
16178.6 53980.3 lineto
poly0
newpath
17526.9 62070.6 moveto
17526.9 62445.9 lineto
17151.6 62445.9 lineto
17151.6 62070.6 lineto
17526.9 62070.6 lineto
poly0
newpath
17526.9 53980.3 moveto
17526.9 54355.6 lineto
17151.6 54355.6 lineto
17151.6 53980.3 lineto
17526.9 53980.3 lineto
poly0
newpath
18875.3 62070.6 moveto
18875.3 62445.9 lineto
18500 62445.9 lineto
18500 62070.6 lineto
18875.3 62070.6 lineto
poly0
newpath
18875.3 53980.3 moveto
18875.3 54355.6 lineto
18500 54355.6 lineto
18500 53980.3 lineto
18875.3 53980.3 lineto
poly0
newpath
20223.7 62070.6 moveto
20223.7 62445.9 lineto
19848.3 62445.9 lineto
19848.3 62070.6 lineto
20223.7 62070.6 lineto
poly0
newpath
20223.7 53980.3 moveto
20223.7 54355.6 lineto
19848.3 54355.6 lineto
19848.3 53980.3 lineto
20223.7 53980.3 lineto
poly0
newpath
21572.1 62070.6 moveto
21572.1 62445.9 lineto
21196.7 62445.9 lineto
21196.7 62070.6 lineto
21572.1 62070.6 lineto
poly0
newpath
21572.1 53980.3 moveto
21572.1 54355.6 lineto
21196.7 54355.6 lineto
21196.7 53980.3 lineto
21572.1 53980.3 lineto
poly0
newpath
22920.5 62070.6 moveto
22920.5 62445.9 lineto
22545.1 62445.9 lineto
22545.1 62070.6 lineto
22920.5 62070.6 lineto
poly0
newpath
22920.5 53980.3 moveto
22920.5 54355.6 lineto
22545.1 54355.6 lineto
22545.1 53980.3 lineto
22920.5 53980.3 lineto
poly0
newpath
24268.9 62070.6 moveto
24268.9 62445.9 lineto
23893.5 62445.9 lineto
23893.5 62070.6 lineto
24268.9 62070.6 lineto
poly0
newpath
24268.9 53980.3 moveto
24268.9 54355.6 lineto
23893.5 54355.6 lineto
23893.5 53980.3 lineto
24268.9 53980.3 lineto
poly0
newpath
25617.3 62070.6 moveto
25617.3 62445.9 lineto
25241.9 62445.9 lineto
25241.9 62070.6 lineto
25617.3 62070.6 lineto
poly0
newpath
25617.3 53980.3 moveto
25617.3 54355.6 lineto
25241.9 54355.6 lineto
25241.9 53980.3 lineto
25617.3 53980.3 lineto
poly0
newpath
11271.5 72116.3 moveto
12200.5 73045.3 lineto
11271.5 73974.3 lineto
10342.5 73045.3 lineto
11271.5 72116.3 lineto
poly0
newpath
105658 72116.3 moveto
106587 73045.3 lineto
105658 73974.3 lineto
104729 73045.3 lineto
105658 72116.3 lineto
poly0
newpath
11271.5 41777.7 moveto
12200.5 42706.7 lineto
11271.5 43635.7 lineto
10342.5 42706.7 lineto
11271.5 41777.7 lineto
poly0
newpath
105658 41777.7 moveto
106587 42706.7 lineto
105658 43635.7 lineto
104729 42706.7 lineto
105658 41777.7 lineto
poly0
118.11 setlinewidth
0 0 0 setrgbcolor
0 0 0 setrgbcolor
newpath
9001.69 37475.6 moveto
9001.69 38656.7 lineto
9282.9 38656.7 lineto
9451.63 38600.5 lineto
9564.12 38488 lineto
9620.36 38375.5 lineto
9676.6 38150.6 lineto
9676.6 37981.8 lineto
9620.36 37756.9 lineto
9564.12 37644.4 lineto
9451.63 37531.9 lineto
9282.9 37475.6 lineto
9001.69 37475.6 lineto
stroke
newpath
10182.8 37475.6 moveto
10182.8 38263 lineto
stroke
newpath
10182.8 38038.1 moveto
10239 38150.6 lineto
10295.3 38206.8 lineto
10407.8 38263 lineto
10520.2 38263 lineto
stroke
newpath
10913.9 37475.6 moveto
10913.9 38263 lineto
stroke
newpath
10913.9 38656.7 moveto
10857.7 38600.5 lineto
10913.9 38544.3 lineto
10970.2 38600.5 lineto
10913.9 38656.7 lineto
10913.9 38544.3 lineto
stroke
newpath
11645.1 37475.6 moveto
11532.6 37531.9 lineto
11476.4 37644.4 lineto
11476.4 38656.7 lineto
stroke
newpath
12263.8 37475.6 moveto
12151.3 37531.9 lineto
12095.1 37644.4 lineto
12095.1 38656.7 lineto
stroke
newpath
13613.6 37475.6 moveto
13613.6 38656.7 lineto
14007.3 37813.1 lineto
14401 38656.7 lineto
14401 37475.6 lineto
stroke
newpath
15469.6 37475.6 moveto
15469.6 38094.3 lineto
15413.4 38206.8 lineto
15300.9 38263 lineto
15075.9 38263 lineto
14963.4 38206.8 lineto
stroke
newpath
15469.6 37531.9 moveto
15357.1 37475.6 lineto
15075.9 37475.6 lineto
14963.4 37531.9 lineto
14907.2 37644.4 lineto
14907.2 37756.9 lineto
14963.4 37869.3 lineto
15075.9 37925.6 lineto
15357.1 37925.6 lineto
15469.6 37981.8 lineto
stroke
newpath
16032.1 38263 moveto
16032.1 37081.9 lineto
stroke
newpath
16032.1 38206.8 moveto
16144.5 38263 lineto
16369.5 38263 lineto
16482 38206.8 lineto
16538.2 38150.6 lineto
16594.5 38038.1 lineto
16594.5 37700.6 lineto
16538.2 37588.1 lineto
16482 37531.9 lineto
16369.5 37475.6 lineto
16144.5 37475.6 lineto
16032.1 37531.9 lineto
stroke
newpath
17100.7 37588.1 moveto
17156.9 37531.9 lineto
17100.7 37475.6 lineto
17044.4 37531.9 lineto
17100.7 37588.1 lineto
17100.7 37475.6 lineto
stroke
newpath
17100.7 38206.8 moveto
17156.9 38150.6 lineto
17100.7 38094.3 lineto
17044.4 38150.6 lineto
17100.7 38206.8 lineto
17100.7 38094.3 lineto
stroke
newpath
7661.67 35635.8 moveto
7874.02 35423.5 lineto
stroke
newpath
7874.02 35635.8 moveto
7661.67 35423.5 lineto
stroke
0 0 0 setrgbcolor
0 0 0 setrgbcolor
newpath
9226.66 36176.4 moveto
9339.14 36176.4 lineto
9451.63 36120.2 lineto
9507.87 36063.9 lineto
9564.12 35951.5 lineto
9620.36 35726.5 lineto
9620.36 35445.3 lineto
9564.12 35220.3 lineto
9507.87 35107.8 lineto
9451.63 35051.6 lineto
9339.14 34995.3 lineto
9226.66 34995.3 lineto
9114.17 35051.6 lineto
9057.93 35107.8 lineto
9001.69 35220.3 lineto
8945.44 35445.3 lineto
8945.44 35726.5 lineto
9001.69 35951.5 lineto
9057.93 36063.9 lineto
9114.17 36120.2 lineto
9226.66 36176.4 lineto
stroke
newpath
10126.5 35107.8 moveto
10182.8 35051.6 lineto
10126.5 34995.3 lineto
10070.3 35051.6 lineto
10126.5 35107.8 lineto
10126.5 34995.3 lineto
stroke
newpath
11195.2 35782.7 moveto
11195.2 34995.3 lineto
stroke
newpath
10913.9 36232.7 moveto
10632.7 35389 lineto
11363.9 35389 lineto
stroke
newpath
12038.8 36176.4 moveto
12151.3 36176.4 lineto
12263.8 36120.2 lineto
12320 36063.9 lineto
12376.3 35951.5 lineto
12432.5 35726.5 lineto
12432.5 35445.3 lineto
12376.3 35220.3 lineto
12320 35107.8 lineto
12263.8 35051.6 lineto
12151.3 34995.3 lineto
12038.8 34995.3 lineto
11926.3 35051.6 lineto
11870.1 35107.8 lineto
11813.8 35220.3 lineto
11757.6 35445.3 lineto
11757.6 35726.5 lineto
11813.8 35951.5 lineto
11870.1 36063.9 lineto
11926.3 36120.2 lineto
12038.8 36176.4 lineto
stroke
newpath
12938.7 34995.3 moveto
12938.7 35782.7 lineto
stroke
newpath
12938.7 35670.2 moveto
12994.9 35726.5 lineto
13107.4 35782.7 lineto
13276.2 35782.7 lineto
13388.6 35726.5 lineto
13444.9 35614 lineto
13444.9 34995.3 lineto
stroke
newpath
13444.9 35614 moveto
13501.1 35726.5 lineto
13613.6 35782.7 lineto
13782.3 35782.7 lineto
13894.8 35726.5 lineto
13951.1 35614 lineto
13951.1 34995.3 lineto
stroke
newpath
14513.5 34995.3 moveto
14513.5 35782.7 lineto
stroke
newpath
14513.5 35670.2 moveto
14569.7 35726.5 lineto
14682.2 35782.7 lineto
14851 35782.7 lineto
14963.4 35726.5 lineto
15019.7 35614 lineto
15019.7 34995.3 lineto
stroke
newpath
15019.7 35614 moveto
15075.9 35726.5 lineto
15188.4 35782.7 lineto
15357.1 35782.7 lineto
15469.6 35726.5 lineto
15525.9 35614 lineto
15525.9 34995.3 lineto
stroke
newpath
17831.8 36232.7 moveto
16819.5 34714.1 lineto
stroke
newpath
19350.4 36176.4 moveto
19462.9 36176.4 lineto
19575.4 36120.2 lineto
19631.6 36063.9 lineto
19687.9 35951.5 lineto
19744.1 35726.5 lineto
19744.1 35445.3 lineto
19687.9 35220.3 lineto
19631.6 35107.8 lineto
19575.4 35051.6 lineto
19462.9 34995.3 lineto
19350.4 34995.3 lineto
19237.9 35051.6 lineto
19181.7 35107.8 lineto
19125.4 35220.3 lineto
19069.2 35445.3 lineto
19069.2 35726.5 lineto
19125.4 35951.5 lineto
19181.7 36063.9 lineto
19237.9 36120.2 lineto
19350.4 36176.4 lineto
stroke
newpath
20250.3 35107.8 moveto
20306.5 35051.6 lineto
20250.3 34995.3 lineto
20194 35051.6 lineto
20250.3 35107.8 lineto
20250.3 34995.3 lineto
stroke
newpath
21037.7 36176.4 moveto
21150.2 36176.4 lineto
21262.7 36120.2 lineto
21318.9 36063.9 lineto
21375.1 35951.5 lineto
21431.4 35726.5 lineto
21431.4 35445.3 lineto
21375.1 35220.3 lineto
21318.9 35107.8 lineto
21262.7 35051.6 lineto
21150.2 34995.3 lineto
21037.7 34995.3 lineto
20925.2 35051.6 lineto
20869 35107.8 lineto
20812.7 35220.3 lineto
20756.5 35445.3 lineto
20756.5 35726.5 lineto
20812.7 35951.5 lineto
20869 36063.9 lineto
20925.2 36120.2 lineto
21037.7 36176.4 lineto
stroke
newpath
22556.2 34995.3 moveto
21881.3 34995.3 lineto
stroke
newpath
22218.8 34995.3 moveto
22218.8 36176.4 lineto
22106.3 36007.7 lineto
21993.8 35895.2 lineto
21881.3 35839 lineto
stroke
newpath
23568.6 36176.4 moveto
23343.6 36176.4 lineto
23231.2 36120.2 lineto
23174.9 36063.9 lineto
23062.4 35895.2 lineto
23006.2 35670.2 lineto
23006.2 35220.3 lineto
23062.4 35107.8 lineto
23118.7 35051.6 lineto
23231.2 34995.3 lineto
23456.1 34995.3 lineto
23568.6 35051.6 lineto
23624.9 35107.8 lineto
23681.1 35220.3 lineto
23681.1 35501.5 lineto
23624.9 35614 lineto
23568.6 35670.2 lineto
23456.1 35726.5 lineto
23231.2 35726.5 lineto
23118.7 35670.2 lineto
23062.4 35614 lineto
23006.2 35501.5 lineto
stroke
newpath
24131 36176.4 moveto
24131 35951.5 lineto
stroke
newpath
24581 36176.4 moveto
24581 35951.5 lineto
stroke
newpath
26324.5 34545.4 moveto
26268.3 34601.6 lineto
26155.8 34770.4 lineto
26099.6 34882.8 lineto
26043.3 35051.6 lineto
25987.1 35332.8 lineto
25987.1 35557.8 lineto
26043.3 35839 lineto
26099.6 36007.7 lineto
26155.8 36120.2 lineto
26268.3 36288.9 lineto
26324.5 36345.2 lineto
stroke
newpath
27393.1 34995.3 moveto
26718.2 34995.3 lineto
stroke
newpath
27055.7 34995.3 moveto
27055.7 36176.4 lineto
26943.2 36007.7 lineto
26830.7 35895.2 lineto
26718.2 35839 lineto
stroke
newpath
28405.5 35782.7 moveto
28405.5 34995.3 lineto
stroke
newpath
28124.3 36232.7 moveto
27843.1 35389 lineto
28574.2 35389 lineto
stroke
newpath
29924.1 34995.3 moveto
29924.1 36176.4 lineto
stroke
newpath
30430.3 34995.3 moveto
30430.3 35614 lineto
30374 35726.5 lineto
30261.5 35782.7 lineto
30092.8 35782.7 lineto
29980.3 35726.5 lineto
29924.1 35670.2 lineto
stroke
newpath
31161.4 34995.3 moveto
31048.9 35051.6 lineto
30992.7 35107.8 lineto
30936.4 35220.3 lineto
30936.4 35557.8 lineto
30992.7 35670.2 lineto
31048.9 35726.5 lineto
31161.4 35782.7 lineto
31330.1 35782.7 lineto
31442.6 35726.5 lineto
31498.9 35670.2 lineto
31555.1 35557.8 lineto
31555.1 35220.3 lineto
31498.9 35107.8 lineto
31442.6 35051.6 lineto
31330.1 34995.3 lineto
31161.4 34995.3 lineto
stroke
newpath
32230 34995.3 moveto
32117.6 35051.6 lineto
32061.3 35164.1 lineto
32061.3 36176.4 lineto
stroke
newpath
33129.9 35051.6 moveto
33017.4 34995.3 lineto
32792.5 34995.3 lineto
32680 35051.6 lineto
32623.7 35164.1 lineto
32623.7 35614 lineto
32680 35726.5 lineto
32792.5 35782.7 lineto
33017.4 35782.7 lineto
33129.9 35726.5 lineto
33186.2 35614 lineto
33186.2 35501.5 lineto
32623.7 35389 lineto
stroke
newpath
33636.1 35051.6 moveto
33748.6 34995.3 lineto
33973.6 34995.3 lineto
34086.1 35051.6 lineto
34142.3 35164.1 lineto
34142.3 35220.3 lineto
34086.1 35332.8 lineto
33973.6 35389 lineto
33804.8 35389 lineto
33692.4 35445.3 lineto
33636.1 35557.8 lineto
33636.1 35614 lineto
33692.4 35726.5 lineto
33804.8 35782.7 lineto
33973.6 35782.7 lineto
34086.1 35726.5 lineto
stroke
newpath
34536 34545.4 moveto
34592.2 34601.6 lineto
34704.7 34770.4 lineto
34761 34882.8 lineto
34817.2 35051.6 lineto
34873.5 35332.8 lineto
34873.5 35557.8 lineto
34817.2 35839 lineto
34761 36007.7 lineto
34704.7 36120.2 lineto
34592.2 36288.9 lineto
34536 36345.2 lineto
stroke
7741.3 33970.6 132.715 cir0
0 0 0 setrgbcolor
0 0 0 setrgbcolor
newpath
9226.66 34617.4 moveto
9339.14 34617.4 lineto
9451.63 34561.1 lineto
9507.87 34504.9 lineto
9564.12 34392.4 lineto
9620.36 34167.4 lineto
9620.36 33886.2 lineto
9564.12 33661.2 lineto
9507.87 33548.8 lineto
9451.63 33492.5 lineto
9339.14 33436.3 lineto
9226.66 33436.3 lineto
9114.17 33492.5 lineto
9057.93 33548.8 lineto
9001.69 33661.2 lineto
8945.44 33886.2 lineto
8945.44 34167.4 lineto
9001.69 34392.4 lineto
9057.93 34504.9 lineto
9114.17 34561.1 lineto
9226.66 34617.4 lineto
stroke
newpath
10126.5 33548.8 moveto
10182.8 33492.5 lineto
10126.5 33436.3 lineto
10070.3 33492.5 lineto
10126.5 33548.8 lineto
10126.5 33436.3 lineto
stroke
newpath
11251.4 34617.4 moveto
10689 34617.4 lineto
10632.7 34054.9 lineto
10689 34111.2 lineto
10801.5 34167.4 lineto
11082.7 34167.4 lineto
11195.2 34111.2 lineto
11251.4 34054.9 lineto
11307.6 33942.5 lineto
11307.6 33661.2 lineto
11251.4 33548.8 lineto
11195.2 33492.5 lineto
11082.7 33436.3 lineto
10801.5 33436.3 lineto
10689 33492.5 lineto
10632.7 33548.8 lineto
stroke
newpath
12038.8 34617.4 moveto
12151.3 34617.4 lineto
12263.8 34561.1 lineto
12320 34504.9 lineto
12376.3 34392.4 lineto
12432.5 34167.4 lineto
12432.5 33886.2 lineto
12376.3 33661.2 lineto
12320 33548.8 lineto
12263.8 33492.5 lineto
12151.3 33436.3 lineto
12038.8 33436.3 lineto
11926.3 33492.5 lineto
11870.1 33548.8 lineto
11813.8 33661.2 lineto
11757.6 33886.2 lineto
11757.6 34167.4 lineto
11813.8 34392.4 lineto
11870.1 34504.9 lineto
11926.3 34561.1 lineto
12038.8 34617.4 lineto
stroke
newpath
12938.7 33436.3 moveto
12938.7 34223.7 lineto
stroke
newpath
12938.7 34111.2 moveto
12994.9 34167.4 lineto
13107.4 34223.7 lineto
13276.2 34223.7 lineto
13388.6 34167.4 lineto
13444.9 34054.9 lineto
13444.9 33436.3 lineto
stroke
newpath
13444.9 34054.9 moveto
13501.1 34167.4 lineto
13613.6 34223.7 lineto
13782.3 34223.7 lineto
13894.8 34167.4 lineto
13951.1 34054.9 lineto
13951.1 33436.3 lineto
stroke
newpath
14513.5 33436.3 moveto
14513.5 34223.7 lineto
stroke
newpath
14513.5 34111.2 moveto
14569.7 34167.4 lineto
14682.2 34223.7 lineto
14851 34223.7 lineto
14963.4 34167.4 lineto
15019.7 34054.9 lineto
15019.7 33436.3 lineto
stroke
newpath
15019.7 34054.9 moveto
15075.9 34167.4 lineto
15188.4 34223.7 lineto
15357.1 34223.7 lineto
15469.6 34167.4 lineto
15525.9 34054.9 lineto
15525.9 33436.3 lineto
stroke
newpath
17831.8 34673.6 moveto
16819.5 33155.1 lineto
stroke
newpath
19350.4 34617.4 moveto
19462.9 34617.4 lineto
19575.4 34561.1 lineto
19631.6 34504.9 lineto
19687.9 34392.4 lineto
19744.1 34167.4 lineto
19744.1 33886.2 lineto
19687.9 33661.2 lineto
19631.6 33548.8 lineto
19575.4 33492.5 lineto
19462.9 33436.3 lineto
19350.4 33436.3 lineto
19237.9 33492.5 lineto
19181.7 33548.8 lineto
19125.4 33661.2 lineto
19069.2 33886.2 lineto
19069.2 34167.4 lineto
19125.4 34392.4 lineto
19181.7 34504.9 lineto
19237.9 34561.1 lineto
19350.4 34617.4 lineto
stroke
newpath
20250.3 33548.8 moveto
20306.5 33492.5 lineto
20250.3 33436.3 lineto
20194 33492.5 lineto
20250.3 33548.8 lineto
20250.3 33436.3 lineto
stroke
newpath
21037.7 34617.4 moveto
21150.2 34617.4 lineto
21262.7 34561.1 lineto
21318.9 34504.9 lineto
21375.1 34392.4 lineto
21431.4 34167.4 lineto
21431.4 33886.2 lineto
21375.1 33661.2 lineto
21318.9 33548.8 lineto
21262.7 33492.5 lineto
21150.2 33436.3 lineto
21037.7 33436.3 lineto
20925.2 33492.5 lineto
20869 33548.8 lineto
20812.7 33661.2 lineto
20756.5 33886.2 lineto
20756.5 34167.4 lineto
20812.7 34392.4 lineto
20869 34504.9 lineto
20925.2 34561.1 lineto
21037.7 34617.4 lineto
stroke
newpath
21881.3 34504.9 moveto
21937.6 34561.1 lineto
22050.1 34617.4 lineto
22331.3 34617.4 lineto
22443.8 34561.1 lineto
22500 34504.9 lineto
22556.2 34392.4 lineto
22556.2 34279.9 lineto
22500 34111.2 lineto
21825.1 33436.3 lineto
22556.2 33436.3 lineto
stroke
newpath
23287.4 34617.4 moveto
23399.9 34617.4 lineto
23512.4 34561.1 lineto
23568.6 34504.9 lineto
23624.9 34392.4 lineto
23681.1 34167.4 lineto
23681.1 33886.2 lineto
23624.9 33661.2 lineto
23568.6 33548.8 lineto
23512.4 33492.5 lineto
23399.9 33436.3 lineto
23287.4 33436.3 lineto
23174.9 33492.5 lineto
23118.7 33548.8 lineto
23062.4 33661.2 lineto
23006.2 33886.2 lineto
23006.2 34167.4 lineto
23062.4 34392.4 lineto
23118.7 34504.9 lineto
23174.9 34561.1 lineto
23287.4 34617.4 lineto
stroke
newpath
24131 34617.4 moveto
24131 34392.4 lineto
stroke
newpath
24581 34617.4 moveto
24581 34392.4 lineto
stroke
newpath
26324.5 32986.3 moveto
26268.3 33042.6 lineto
26155.8 33211.3 lineto
26099.6 33323.8 lineto
26043.3 33492.5 lineto
25987.1 33773.7 lineto
25987.1 33998.7 lineto
26043.3 34279.9 lineto
26099.6 34448.6 lineto
26155.8 34561.1 lineto
26268.3 34729.9 lineto
26324.5 34786.1 lineto
stroke
newpath
26662 34617.4 moveto
27393.1 34617.4 lineto
26999.4 34167.4 lineto
27168.2 34167.4 lineto
27280.7 34111.2 lineto
27336.9 34054.9 lineto
27393.1 33942.5 lineto
27393.1 33661.2 lineto
27336.9 33548.8 lineto
27280.7 33492.5 lineto
27168.2 33436.3 lineto
26830.7 33436.3 lineto
26718.2 33492.5 lineto
26662 33548.8 lineto
stroke
newpath
27843.1 34504.9 moveto
27899.3 34561.1 lineto
28011.8 34617.4 lineto
28293 34617.4 lineto
28405.5 34561.1 lineto
28461.8 34504.9 lineto
28518 34392.4 lineto
28518 34279.9 lineto
28461.8 34111.2 lineto
27786.8 33436.3 lineto
28518 33436.3 lineto
stroke
newpath
29924.1 33436.3 moveto
29924.1 34617.4 lineto
stroke
newpath
30430.3 33436.3 moveto
30430.3 34054.9 lineto
30374 34167.4 lineto
30261.5 34223.7 lineto
30092.8 34223.7 lineto
29980.3 34167.4 lineto
29924.1 34111.2 lineto
stroke
newpath
31161.4 33436.3 moveto
31048.9 33492.5 lineto
30992.7 33548.8 lineto
30936.4 33661.2 lineto
30936.4 33998.7 lineto
30992.7 34111.2 lineto
31048.9 34167.4 lineto
31161.4 34223.7 lineto
31330.1 34223.7 lineto
31442.6 34167.4 lineto
31498.9 34111.2 lineto
31555.1 33998.7 lineto
31555.1 33661.2 lineto
31498.9 33548.8 lineto
31442.6 33492.5 lineto
31330.1 33436.3 lineto
31161.4 33436.3 lineto
stroke
newpath
32230 33436.3 moveto
32117.6 33492.5 lineto
32061.3 33605 lineto
32061.3 34617.4 lineto
stroke
newpath
33129.9 33492.5 moveto
33017.4 33436.3 lineto
32792.5 33436.3 lineto
32680 33492.5 lineto
32623.7 33605 lineto
32623.7 34054.9 lineto
32680 34167.4 lineto
32792.5 34223.7 lineto
33017.4 34223.7 lineto
33129.9 34167.4 lineto
33186.2 34054.9 lineto
33186.2 33942.5 lineto
32623.7 33830 lineto
stroke
newpath
33636.1 33492.5 moveto
33748.6 33436.3 lineto
33973.6 33436.3 lineto
34086.1 33492.5 lineto
34142.3 33605 lineto
34142.3 33661.2 lineto
34086.1 33773.7 lineto
33973.6 33830 lineto
33804.8 33830 lineto
33692.4 33886.2 lineto
33636.1 33998.7 lineto
33636.1 34054.9 lineto
33692.4 34167.4 lineto
33804.8 34223.7 lineto
33973.6 34223.7 lineto
34086.1 34167.4 lineto
stroke
newpath
34536 32986.3 moveto
34592.2 33042.6 lineto
34704.7 33211.3 lineto
34761 33323.8 lineto
34817.2 33492.5 lineto
34873.5 33773.7 lineto
34873.5 33998.7 lineto
34817.2 34279.9 lineto
34761 34448.6 lineto
34704.7 34561.1 lineto
34592.2 34729.9 lineto
34536 34786.1 lineto
stroke
newpath
7661.67 32623.9 moveto
7661.67 32199.2 lineto
stroke
newpath
7449.33 32411.5 moveto
7874.02 32411.5 lineto
stroke
0 0 0 setrgbcolor
0 0 0 setrgbcolor
newpath
9226.66 33058.3 moveto
9339.14 33058.3 lineto
9451.63 33002.1 lineto
9507.87 32945.8 lineto
9564.12 32833.3 lineto
9620.36 32608.4 lineto
9620.36 32327.2 lineto
9564.12 32102.2 lineto
9507.87 31989.7 lineto
9451.63 31933.5 lineto
9339.14 31877.2 lineto
9226.66 31877.2 lineto
9114.17 31933.5 lineto
9057.93 31989.7 lineto
9001.69 32102.2 lineto
8945.44 32327.2 lineto
8945.44 32608.4 lineto
9001.69 32833.3 lineto
9057.93 32945.8 lineto
9114.17 33002.1 lineto
9226.66 33058.3 lineto
stroke
newpath
10126.5 31989.7 moveto
10182.8 31933.5 lineto
10126.5 31877.2 lineto
10070.3 31933.5 lineto
10126.5 31989.7 lineto
10126.5 31877.2 lineto
stroke
newpath
10857.7 32552.1 moveto
10745.2 32608.4 lineto
10689 32664.6 lineto
10632.7 32777.1 lineto
10632.7 32833.3 lineto
10689 32945.8 lineto
10745.2 33002.1 lineto
10857.7 33058.3 lineto
11082.7 33058.3 lineto
11195.2 33002.1 lineto
11251.4 32945.8 lineto
11307.6 32833.3 lineto
11307.6 32777.1 lineto
11251.4 32664.6 lineto
11195.2 32608.4 lineto
11082.7 32552.1 lineto
10857.7 32552.1 lineto
10745.2 32495.9 lineto
10689 32439.6 lineto
10632.7 32327.2 lineto
10632.7 32102.2 lineto
10689 31989.7 lineto
10745.2 31933.5 lineto
10857.7 31877.2 lineto
11082.7 31877.2 lineto
11195.2 31933.5 lineto
11251.4 31989.7 lineto
11307.6 32102.2 lineto
11307.6 32327.2 lineto
11251.4 32439.6 lineto
11195.2 32495.9 lineto
11082.7 32552.1 lineto
stroke
newpath
12038.8 33058.3 moveto
12151.3 33058.3 lineto
12263.8 33002.1 lineto
12320 32945.8 lineto
12376.3 32833.3 lineto
12432.5 32608.4 lineto
12432.5 32327.2 lineto
12376.3 32102.2 lineto
12320 31989.7 lineto
12263.8 31933.5 lineto
12151.3 31877.2 lineto
12038.8 31877.2 lineto
11926.3 31933.5 lineto
11870.1 31989.7 lineto
11813.8 32102.2 lineto
11757.6 32327.2 lineto
11757.6 32608.4 lineto
11813.8 32833.3 lineto
11870.1 32945.8 lineto
11926.3 33002.1 lineto
12038.8 33058.3 lineto
stroke
newpath
12938.7 31877.2 moveto
12938.7 32664.6 lineto
stroke
newpath
12938.7 32552.1 moveto
12994.9 32608.4 lineto
13107.4 32664.6 lineto
13276.2 32664.6 lineto
13388.6 32608.4 lineto
13444.9 32495.9 lineto
13444.9 31877.2 lineto
stroke
newpath
13444.9 32495.9 moveto
13501.1 32608.4 lineto
13613.6 32664.6 lineto
13782.3 32664.6 lineto
13894.8 32608.4 lineto
13951.1 32495.9 lineto
13951.1 31877.2 lineto
stroke
newpath
14513.5 31877.2 moveto
14513.5 32664.6 lineto
stroke
newpath
14513.5 32552.1 moveto
14569.7 32608.4 lineto
14682.2 32664.6 lineto
14851 32664.6 lineto
14963.4 32608.4 lineto
15019.7 32495.9 lineto
15019.7 31877.2 lineto
stroke
newpath
15019.7 32495.9 moveto
15075.9 32608.4 lineto
15188.4 32664.6 lineto
15357.1 32664.6 lineto
15469.6 32608.4 lineto
15525.9 32495.9 lineto
15525.9 31877.2 lineto
stroke
newpath
17831.8 33114.6 moveto
16819.5 31596 lineto
stroke
newpath
19350.4 33058.3 moveto
19462.9 33058.3 lineto
19575.4 33002.1 lineto
19631.6 32945.8 lineto
19687.9 32833.3 lineto
19744.1 32608.4 lineto
19744.1 32327.2 lineto
19687.9 32102.2 lineto
19631.6 31989.7 lineto
19575.4 31933.5 lineto
19462.9 31877.2 lineto
19350.4 31877.2 lineto
19237.9 31933.5 lineto
19181.7 31989.7 lineto
19125.4 32102.2 lineto
19069.2 32327.2 lineto
19069.2 32608.4 lineto
19125.4 32833.3 lineto
19181.7 32945.8 lineto
19237.9 33002.1 lineto
19350.4 33058.3 lineto
stroke
newpath
20250.3 31989.7 moveto
20306.5 31933.5 lineto
20250.3 31877.2 lineto
20194 31933.5 lineto
20250.3 31989.7 lineto
20250.3 31877.2 lineto
stroke
newpath
21037.7 33058.3 moveto
21150.2 33058.3 lineto
21262.7 33002.1 lineto
21318.9 32945.8 lineto
21375.1 32833.3 lineto
21431.4 32608.4 lineto
21431.4 32327.2 lineto
21375.1 32102.2 lineto
21318.9 31989.7 lineto
21262.7 31933.5 lineto
21150.2 31877.2 lineto
21037.7 31877.2 lineto
20925.2 31933.5 lineto
20869 31989.7 lineto
20812.7 32102.2 lineto
20756.5 32327.2 lineto
20756.5 32608.4 lineto
20812.7 32833.3 lineto
20869 32945.8 lineto
20925.2 33002.1 lineto
21037.7 33058.3 lineto
stroke
newpath
21825.1 33058.3 moveto
22556.2 33058.3 lineto
22162.5 32608.4 lineto
22331.3 32608.4 lineto
22443.8 32552.1 lineto
22500 32495.9 lineto
22556.2 32383.4 lineto
22556.2 32102.2 lineto
22500 31989.7 lineto
22443.8 31933.5 lineto
22331.3 31877.2 lineto
21993.8 31877.2 lineto
21881.3 31933.5 lineto
21825.1 31989.7 lineto
stroke
newpath
23681.1 31877.2 moveto
23006.2 31877.2 lineto
stroke
newpath
23343.6 31877.2 moveto
23343.6 33058.3 lineto
23231.2 32889.6 lineto
23118.7 32777.1 lineto
23006.2 32720.9 lineto
stroke
newpath
24131 33058.3 moveto
24131 32833.3 lineto
stroke
newpath
24581 33058.3 moveto
24581 32833.3 lineto
stroke
newpath
26324.5 31427.3 moveto
26268.3 31483.5 lineto
26155.8 31652.2 lineto
26099.6 31764.7 lineto
26043.3 31933.5 lineto
25987.1 32214.7 lineto
25987.1 32439.6 lineto
26043.3 32720.9 lineto
26099.6 32889.6 lineto
26155.8 33002.1 lineto
26268.3 33170.8 lineto
26324.5 33227 lineto
stroke
newpath
26718.2 32945.8 moveto
26774.5 33002.1 lineto
26887 33058.3 lineto
27168.2 33058.3 lineto
27280.7 33002.1 lineto
27336.9 32945.8 lineto
27393.1 32833.3 lineto
27393.1 32720.9 lineto
27336.9 32552.1 lineto
26662 31877.2 lineto
27393.1 31877.2 lineto
stroke
newpath
28461.8 33058.3 moveto
27899.3 33058.3 lineto
27843.1 32495.9 lineto
27899.3 32552.1 lineto
28011.8 32608.4 lineto
28293 32608.4 lineto
28405.5 32552.1 lineto
28461.8 32495.9 lineto
28518 32383.4 lineto
28518 32102.2 lineto
28461.8 31989.7 lineto
28405.5 31933.5 lineto
28293 31877.2 lineto
28011.8 31877.2 lineto
27899.3 31933.5 lineto
27843.1 31989.7 lineto
stroke
newpath
29530.4 33058.3 moveto
29305.4 33058.3 lineto
29192.9 33002.1 lineto
29136.7 32945.8 lineto
29024.2 32777.1 lineto
28967.9 32552.1 lineto
28967.9 32102.2 lineto
29024.2 31989.7 lineto
29080.4 31933.5 lineto
29192.9 31877.2 lineto
29417.9 31877.2 lineto
29530.4 31933.5 lineto
29586.6 31989.7 lineto
29642.9 32102.2 lineto
29642.9 32383.4 lineto
29586.6 32495.9 lineto
29530.4 32552.1 lineto
29417.9 32608.4 lineto
29192.9 32608.4 lineto
29080.4 32552.1 lineto
29024.2 32495.9 lineto
28967.9 32383.4 lineto
stroke
newpath
31048.9 31877.2 moveto
31048.9 33058.3 lineto
stroke
newpath
31555.1 31877.2 moveto
31555.1 32495.9 lineto
31498.9 32608.4 lineto
31386.4 32664.6 lineto
31217.7 32664.6 lineto
31105.2 32608.4 lineto
31048.9 32552.1 lineto
stroke
newpath
32286.3 31877.2 moveto
32173.8 31933.5 lineto
32117.6 31989.7 lineto
32061.3 32102.2 lineto
32061.3 32439.6 lineto
32117.6 32552.1 lineto
32173.8 32608.4 lineto
32286.3 32664.6 lineto
32455 32664.6 lineto
32567.5 32608.4 lineto
32623.7 32552.1 lineto
32680 32439.6 lineto
32680 32102.2 lineto
32623.7 31989.7 lineto
32567.5 31933.5 lineto
32455 31877.2 lineto
32286.3 31877.2 lineto
stroke
newpath
33354.9 31877.2 moveto
33242.4 31933.5 lineto
33186.2 32045.9 lineto
33186.2 33058.3 lineto
stroke
newpath
34254.8 31933.5 moveto
34142.3 31877.2 lineto
33917.3 31877.2 lineto
33804.8 31933.5 lineto
33748.6 32045.9 lineto
33748.6 32495.9 lineto
33804.8 32608.4 lineto
33917.3 32664.6 lineto
34142.3 32664.6 lineto
34254.8 32608.4 lineto
34311 32495.9 lineto
34311 32383.4 lineto
33748.6 32270.9 lineto
stroke
newpath
34761 31933.5 moveto
34873.5 31877.2 lineto
35098.4 31877.2 lineto
35210.9 31933.5 lineto
35267.2 32045.9 lineto
35267.2 32102.2 lineto
35210.9 32214.7 lineto
35098.4 32270.9 lineto
34929.7 32270.9 lineto
34817.2 32327.2 lineto
34761 32439.6 lineto
34761 32495.9 lineto
34817.2 32608.4 lineto
34929.7 32664.6 lineto
35098.4 32664.6 lineto
35210.9 32608.4 lineto
stroke
newpath
35660.9 31427.3 moveto
35717.1 31483.5 lineto
35829.6 31652.2 lineto
35885.8 31764.7 lineto
35942.1 31933.5 lineto
35998.3 32214.7 lineto
35998.3 32439.6 lineto
35942.1 32720.9 lineto
35885.8 32889.6 lineto
35829.6 33002.1 lineto
35717.1 33170.8 lineto
35660.9 33227 lineto
stroke
newpath
7796.27 30664.8 moveto
7796.27 31040.2 lineto
7420.9 31040.2 lineto
7420.9 30664.8 lineto
7796.27 30664.8 lineto
poly0
0 0 0 setrgbcolor
0 0 0 setrgbcolor
newpath
9620.36 30318.2 moveto
8945.44 30318.2 lineto
stroke
newpath
9282.9 30318.2 moveto
9282.9 31499.3 lineto
9170.42 31330.5 lineto
9057.93 31218 lineto
8945.44 31161.8 lineto
stroke
newpath
10126.5 30430.6 moveto
10182.8 30374.4 lineto
10126.5 30318.2 lineto
10070.3 30374.4 lineto
10126.5 30430.6 lineto
10126.5 30318.2 lineto
stroke
newpath
10913.9 31499.3 moveto
11026.4 31499.3 lineto
11138.9 31443 lineto
11195.2 31386.8 lineto
11251.4 31274.3 lineto
11307.6 31049.3 lineto
11307.6 30768.1 lineto
11251.4 30543.1 lineto
11195.2 30430.6 lineto
11138.9 30374.4 lineto
11026.4 30318.2 lineto
10913.9 30318.2 lineto
10801.5 30374.4 lineto
10745.2 30430.6 lineto
10689 30543.1 lineto
10632.7 30768.1 lineto
10632.7 31049.3 lineto
10689 31274.3 lineto
10745.2 31386.8 lineto
10801.5 31443 lineto
10913.9 31499.3 lineto
stroke
newpath
12038.8 31499.3 moveto
12151.3 31499.3 lineto
12263.8 31443 lineto
12320 31386.8 lineto
12376.3 31274.3 lineto
12432.5 31049.3 lineto
12432.5 30768.1 lineto
12376.3 30543.1 lineto
12320 30430.6 lineto
12263.8 30374.4 lineto
12151.3 30318.2 lineto
12038.8 30318.2 lineto
11926.3 30374.4 lineto
11870.1 30430.6 lineto
11813.8 30543.1 lineto
11757.6 30768.1 lineto
11757.6 31049.3 lineto
11813.8 31274.3 lineto
11870.1 31386.8 lineto
11926.3 31443 lineto
12038.8 31499.3 lineto
stroke
newpath
12938.7 30318.2 moveto
12938.7 31105.6 lineto
stroke
newpath
12938.7 30993.1 moveto
12994.9 31049.3 lineto
13107.4 31105.6 lineto
13276.2 31105.6 lineto
13388.6 31049.3 lineto
13444.9 30936.8 lineto
13444.9 30318.2 lineto
stroke
newpath
13444.9 30936.8 moveto
13501.1 31049.3 lineto
13613.6 31105.6 lineto
13782.3 31105.6 lineto
13894.8 31049.3 lineto
13951.1 30936.8 lineto
13951.1 30318.2 lineto
stroke
newpath
14513.5 30318.2 moveto
14513.5 31105.6 lineto
stroke
newpath
14513.5 30993.1 moveto
14569.7 31049.3 lineto
14682.2 31105.6 lineto
14851 31105.6 lineto
14963.4 31049.3 lineto
15019.7 30936.8 lineto
15019.7 30318.2 lineto
stroke
newpath
15019.7 30936.8 moveto
15075.9 31049.3 lineto
15188.4 31105.6 lineto
15357.1 31105.6 lineto
15469.6 31049.3 lineto
15525.9 30936.8 lineto
15525.9 30318.2 lineto
stroke
newpath
17831.8 31555.5 moveto
16819.5 30036.9 lineto
stroke
newpath
19350.4 31499.3 moveto
19462.9 31499.3 lineto
19575.4 31443 lineto
19631.6 31386.8 lineto
19687.9 31274.3 lineto
19744.1 31049.3 lineto
19744.1 30768.1 lineto
19687.9 30543.1 lineto
19631.6 30430.6 lineto
19575.4 30374.4 lineto
19462.9 30318.2 lineto
19350.4 30318.2 lineto
19237.9 30374.4 lineto
19181.7 30430.6 lineto
19125.4 30543.1 lineto
19069.2 30768.1 lineto
19069.2 31049.3 lineto
19125.4 31274.3 lineto
19181.7 31386.8 lineto
19237.9 31443 lineto
19350.4 31499.3 lineto
stroke
newpath
20250.3 30430.6 moveto
20306.5 30374.4 lineto
20250.3 30318.2 lineto
20194 30374.4 lineto
20250.3 30430.6 lineto
20250.3 30318.2 lineto
stroke
newpath
21037.7 31499.3 moveto
21150.2 31499.3 lineto
21262.7 31443 lineto
21318.9 31386.8 lineto
21375.1 31274.3 lineto
21431.4 31049.3 lineto
21431.4 30768.1 lineto
21375.1 30543.1 lineto
21318.9 30430.6 lineto
21262.7 30374.4 lineto
21150.2 30318.2 lineto
21037.7 30318.2 lineto
20925.2 30374.4 lineto
20869 30430.6 lineto
20812.7 30543.1 lineto
20756.5 30768.1 lineto
20756.5 31049.3 lineto
20812.7 31274.3 lineto
20869 31386.8 lineto
20925.2 31443 lineto
21037.7 31499.3 lineto
stroke
newpath
21825.1 31499.3 moveto
22556.2 31499.3 lineto
22162.5 31049.3 lineto
22331.3 31049.3 lineto
22443.8 30993.1 lineto
22500 30936.8 lineto
22556.2 30824.3 lineto
22556.2 30543.1 lineto
22500 30430.6 lineto
22443.8 30374.4 lineto
22331.3 30318.2 lineto
21993.8 30318.2 lineto
21881.3 30374.4 lineto
21825.1 30430.6 lineto
stroke
newpath
23118.7 30318.2 moveto
23343.6 30318.2 lineto
23456.1 30374.4 lineto
23512.4 30430.6 lineto
23624.9 30599.4 lineto
23681.1 30824.3 lineto
23681.1 31274.3 lineto
23624.9 31386.8 lineto
23568.6 31443 lineto
23456.1 31499.3 lineto
23231.2 31499.3 lineto
23118.7 31443 lineto
23062.4 31386.8 lineto
23006.2 31274.3 lineto
23006.2 30993.1 lineto
23062.4 30880.6 lineto
23118.7 30824.3 lineto
23231.2 30768.1 lineto
23456.1 30768.1 lineto
23568.6 30824.3 lineto
23624.9 30880.6 lineto
23681.1 30993.1 lineto
stroke
newpath
24131 31499.3 moveto
24131 31274.3 lineto
stroke
newpath
24581 31499.3 moveto
24581 31274.3 lineto
stroke
newpath
26324.5 29868.2 moveto
26268.3 29924.5 lineto
26155.8 30093.2 lineto
26099.6 30205.7 lineto
26043.3 30374.4 lineto
25987.1 30655.6 lineto
25987.1 30880.6 lineto
26043.3 31161.8 lineto
26099.6 31330.5 lineto
26155.8 31443 lineto
26268.3 31611.7 lineto
26324.5 31668 lineto
stroke
newpath
27393.1 30318.2 moveto
26718.2 30318.2 lineto
stroke
newpath
27055.7 30318.2 moveto
27055.7 31499.3 lineto
26943.2 31330.5 lineto
26830.7 31218 lineto
26718.2 31161.8 lineto
stroke
newpath
27786.8 31499.3 moveto
28518 31499.3 lineto
28124.3 31049.3 lineto
28293 31049.3 lineto
28405.5 30993.1 lineto
28461.8 30936.8 lineto
28518 30824.3 lineto
28518 30543.1 lineto
28461.8 30430.6 lineto
28405.5 30374.4 lineto
28293 30318.2 lineto
27955.6 30318.2 lineto
27843.1 30374.4 lineto
27786.8 30430.6 lineto
stroke
newpath
29586.6 31499.3 moveto
29024.2 31499.3 lineto
28967.9 30936.8 lineto
29024.2 30993.1 lineto
29136.7 31049.3 lineto
29417.9 31049.3 lineto
29530.4 30993.1 lineto
29586.6 30936.8 lineto
29642.9 30824.3 lineto
29642.9 30543.1 lineto
29586.6 30430.6 lineto
29530.4 30374.4 lineto
29417.9 30318.2 lineto
29136.7 30318.2 lineto
29024.2 30374.4 lineto
28967.9 30430.6 lineto
stroke
newpath
31048.9 30318.2 moveto
31048.9 31499.3 lineto
stroke
newpath
31555.1 30318.2 moveto
31555.1 30936.8 lineto
31498.9 31049.3 lineto
31386.4 31105.6 lineto
31217.7 31105.6 lineto
31105.2 31049.3 lineto
31048.9 30993.1 lineto
stroke
newpath
32286.3 30318.2 moveto
32173.8 30374.4 lineto
32117.6 30430.6 lineto
32061.3 30543.1 lineto
32061.3 30880.6 lineto
32117.6 30993.1 lineto
32173.8 31049.3 lineto
32286.3 31105.6 lineto
32455 31105.6 lineto
32567.5 31049.3 lineto
32623.7 30993.1 lineto
32680 30880.6 lineto
32680 30543.1 lineto
32623.7 30430.6 lineto
32567.5 30374.4 lineto
32455 30318.2 lineto
32286.3 30318.2 lineto
stroke
newpath
33354.9 30318.2 moveto
33242.4 30374.4 lineto
33186.2 30486.9 lineto
33186.2 31499.3 lineto
stroke
newpath
34254.8 30374.4 moveto
34142.3 30318.2 lineto
33917.3 30318.2 lineto
33804.8 30374.4 lineto
33748.6 30486.9 lineto
33748.6 30936.8 lineto
33804.8 31049.3 lineto
33917.3 31105.6 lineto
34142.3 31105.6 lineto
34254.8 31049.3 lineto
34311 30936.8 lineto
34311 30824.3 lineto
33748.6 30711.9 lineto
stroke
newpath
34761 30374.4 moveto
34873.5 30318.2 lineto
35098.4 30318.2 lineto
35210.9 30374.4 lineto
35267.2 30486.9 lineto
35267.2 30543.1 lineto
35210.9 30655.6 lineto
35098.4 30711.9 lineto
34929.7 30711.9 lineto
34817.2 30768.1 lineto
34761 30880.6 lineto
34761 30936.8 lineto
34817.2 31049.3 lineto
34929.7 31105.6 lineto
35098.4 31105.6 lineto
35210.9 31049.3 lineto
stroke
newpath
35660.9 29868.2 moveto
35717.1 29924.5 lineto
35829.6 30093.2 lineto
35885.8 30205.7 lineto
35942.1 30374.4 lineto
35998.3 30655.6 lineto
35998.3 30880.6 lineto
35942.1 31161.8 lineto
35885.8 31330.5 lineto
35829.6 31443 lineto
35717.1 31611.7 lineto
35660.9 31668 lineto
stroke
newpath
6945.01 28364.4 moveto
7874.02 29293.4 lineto
6945.01 30222.4 lineto
6016 29293.4 lineto
6945.01 28364.4 lineto
poly0
0 0 0 setrgbcolor
0 0 0 setrgbcolor
newpath
8889.2 29940.2 moveto
9620.36 29940.2 lineto
9226.66 29490.3 lineto
9395.39 29490.3 lineto
9507.87 29434 lineto
9564.12 29377.8 lineto
9620.36 29265.3 lineto
9620.36 28984.1 lineto
9564.12 28871.6 lineto
9507.87 28815.3 lineto
9395.39 28759.1 lineto
9057.93 28759.1 lineto
8945.44 28815.3 lineto
8889.2 28871.6 lineto
stroke
newpath
10126.5 28871.6 moveto
10182.8 28815.3 lineto
10126.5 28759.1 lineto
10070.3 28815.3 lineto
10126.5 28871.6 lineto
10126.5 28759.1 lineto
stroke
newpath
11251.4 29940.2 moveto
10689 29940.2 lineto
10632.7 29377.8 lineto
10689 29434 lineto
10801.5 29490.3 lineto
11082.7 29490.3 lineto
11195.2 29434 lineto
11251.4 29377.8 lineto
11307.6 29265.3 lineto
11307.6 28984.1 lineto
11251.4 28871.6 lineto
11195.2 28815.3 lineto
11082.7 28759.1 lineto
10801.5 28759.1 lineto
10689 28815.3 lineto
10632.7 28871.6 lineto
stroke
newpath
12038.8 29940.2 moveto
12151.3 29940.2 lineto
12263.8 29884 lineto
12320 29827.7 lineto
12376.3 29715.2 lineto
12432.5 29490.3 lineto
12432.5 29209 lineto
12376.3 28984.1 lineto
12320 28871.6 lineto
12263.8 28815.3 lineto
12151.3 28759.1 lineto
12038.8 28759.1 lineto
11926.3 28815.3 lineto
11870.1 28871.6 lineto
11813.8 28984.1 lineto
11757.6 29209 lineto
11757.6 29490.3 lineto
11813.8 29715.2 lineto
11870.1 29827.7 lineto
11926.3 29884 lineto
12038.8 29940.2 lineto
stroke
newpath
12938.7 28759.1 moveto
12938.7 29546.5 lineto
stroke
newpath
12938.7 29434 moveto
12994.9 29490.3 lineto
13107.4 29546.5 lineto
13276.2 29546.5 lineto
13388.6 29490.3 lineto
13444.9 29377.8 lineto
13444.9 28759.1 lineto
stroke
newpath
13444.9 29377.8 moveto
13501.1 29490.3 lineto
13613.6 29546.5 lineto
13782.3 29546.5 lineto
13894.8 29490.3 lineto
13951.1 29377.8 lineto
13951.1 28759.1 lineto
stroke
newpath
14513.5 28759.1 moveto
14513.5 29546.5 lineto
stroke
newpath
14513.5 29434 moveto
14569.7 29490.3 lineto
14682.2 29546.5 lineto
14851 29546.5 lineto
14963.4 29490.3 lineto
15019.7 29377.8 lineto
15019.7 28759.1 lineto
stroke
newpath
15019.7 29377.8 moveto
15075.9 29490.3 lineto
15188.4 29546.5 lineto
15357.1 29546.5 lineto
15469.6 29490.3 lineto
15525.9 29377.8 lineto
15525.9 28759.1 lineto
stroke
newpath
17831.8 29996.5 moveto
16819.5 28477.9 lineto
stroke
newpath
19350.4 29940.2 moveto
19462.9 29940.2 lineto
19575.4 29884 lineto
19631.6 29827.7 lineto
19687.9 29715.2 lineto
19744.1 29490.3 lineto
19744.1 29209 lineto
19687.9 28984.1 lineto
19631.6 28871.6 lineto
19575.4 28815.3 lineto
19462.9 28759.1 lineto
19350.4 28759.1 lineto
19237.9 28815.3 lineto
19181.7 28871.6 lineto
19125.4 28984.1 lineto
19069.2 29209 lineto
19069.2 29490.3 lineto
19125.4 29715.2 lineto
19181.7 29827.7 lineto
19237.9 29884 lineto
19350.4 29940.2 lineto
stroke
newpath
20250.3 28871.6 moveto
20306.5 28815.3 lineto
20250.3 28759.1 lineto
20194 28815.3 lineto
20250.3 28871.6 lineto
20250.3 28759.1 lineto
stroke
newpath
21431.4 28759.1 moveto
20756.5 28759.1 lineto
stroke
newpath
21093.9 28759.1 moveto
21093.9 29940.2 lineto
20981.4 29771.5 lineto
20869 29659 lineto
20756.5 29602.8 lineto
stroke
newpath
21825.1 29940.2 moveto
22556.2 29940.2 lineto
22162.5 29490.3 lineto
22331.3 29490.3 lineto
22443.8 29434 lineto
22500 29377.8 lineto
22556.2 29265.3 lineto
22556.2 28984.1 lineto
22500 28871.6 lineto
22443.8 28815.3 lineto
22331.3 28759.1 lineto
21993.8 28759.1 lineto
21881.3 28815.3 lineto
21825.1 28871.6 lineto
stroke
newpath
23231.2 29434 moveto
23118.7 29490.3 lineto
23062.4 29546.5 lineto
23006.2 29659 lineto
23006.2 29715.2 lineto
23062.4 29827.7 lineto
23118.7 29884 lineto
23231.2 29940.2 lineto
23456.1 29940.2 lineto
23568.6 29884 lineto
23624.9 29827.7 lineto
23681.1 29715.2 lineto
23681.1 29659 lineto
23624.9 29546.5 lineto
23568.6 29490.3 lineto
23456.1 29434 lineto
23231.2 29434 lineto
23118.7 29377.8 lineto
23062.4 29321.5 lineto
23006.2 29209 lineto
23006.2 28984.1 lineto
23062.4 28871.6 lineto
23118.7 28815.3 lineto
23231.2 28759.1 lineto
23456.1 28759.1 lineto
23568.6 28815.3 lineto
23624.9 28871.6 lineto
23681.1 28984.1 lineto
23681.1 29209 lineto
23624.9 29321.5 lineto
23568.6 29377.8 lineto
23456.1 29434 lineto
stroke
newpath
24131 29940.2 moveto
24131 29715.2 lineto
stroke
newpath
24581 29940.2 moveto
24581 29715.2 lineto
stroke
newpath
26324.5 28309.2 moveto
26268.3 28365.4 lineto
26155.8 28534.1 lineto
26099.6 28646.6 lineto
26043.3 28815.3 lineto
25987.1 29096.6 lineto
25987.1 29321.5 lineto
26043.3 29602.8 lineto
26099.6 29771.5 lineto
26155.8 29884 lineto
26268.3 30052.7 lineto
26324.5 30108.9 lineto
stroke
newpath
27280.7 29546.5 moveto
27280.7 28759.1 lineto
stroke
newpath
26999.4 29996.5 moveto
26718.2 29152.8 lineto
27449.4 29152.8 lineto
stroke
newpath
28799.2 28759.1 moveto
28799.2 29940.2 lineto
stroke
newpath
29305.4 28759.1 moveto
29305.4 29377.8 lineto
29249.2 29490.3 lineto
29136.7 29546.5 lineto
28967.9 29546.5 lineto
28855.5 29490.3 lineto
28799.2 29434 lineto
stroke
newpath
30036.6 28759.1 moveto
29924.1 28815.3 lineto
29867.8 28871.6 lineto
29811.6 28984.1 lineto
29811.6 29321.5 lineto
29867.8 29434 lineto
29924.1 29490.3 lineto
30036.6 29546.5 lineto
30205.3 29546.5 lineto
30317.8 29490.3 lineto
30374 29434 lineto
30430.3 29321.5 lineto
30430.3 28984.1 lineto
30374 28871.6 lineto
30317.8 28815.3 lineto
30205.3 28759.1 lineto
30036.6 28759.1 lineto
stroke
newpath
31105.2 28759.1 moveto
30992.7 28815.3 lineto
30936.4 28927.8 lineto
30936.4 29940.2 lineto
stroke
newpath
32005.1 28815.3 moveto
31892.6 28759.1 lineto
31667.6 28759.1 lineto
31555.1 28815.3 lineto
31498.9 28927.8 lineto
31498.9 29377.8 lineto
31555.1 29490.3 lineto
31667.6 29546.5 lineto
31892.6 29546.5 lineto
32005.1 29490.3 lineto
32061.3 29377.8 lineto
32061.3 29265.3 lineto
31498.9 29152.8 lineto
stroke
newpath
32511.3 28815.3 moveto
32623.7 28759.1 lineto
32848.7 28759.1 lineto
32961.2 28815.3 lineto
33017.4 28927.8 lineto
33017.4 28984.1 lineto
32961.2 29096.6 lineto
32848.7 29152.8 lineto
32680 29152.8 lineto
32567.5 29209 lineto
32511.3 29321.5 lineto
32511.3 29377.8 lineto
32567.5 29490.3 lineto
32680 29546.5 lineto
32848.7 29546.5 lineto
32961.2 29490.3 lineto
stroke
newpath
33411.1 28309.2 moveto
33467.4 28365.4 lineto
33579.9 28534.1 lineto
33636.1 28646.6 lineto
33692.4 28815.3 lineto
33748.6 29096.6 lineto
33748.6 29321.5 lineto
33692.4 29602.8 lineto
33636.1 29771.5 lineto
33579.9 29884 lineto
33467.4 30052.7 lineto
33411.1 30108.9 lineto
stroke
showpage
grestore
%%EOF
