%!PS-Adobe-3.0
%%Creator: PCBNEW
%%CreationDate: Tue Dec 31 14:19:51 2019
%%Title: /home/tfuller/lang/rpi/circuitBoards/scroller/scroller/gerber/scroller-NPTH-drl_map.ps
%%Pages: 1
%%PageOrder: Ascend
%%BoundingBox: 0 0 596 842
%%DocumentMedia: A4 595 842 0 () ()
%%Orientation: Landscape
%%EndComments
%%BeginProlog
/line { newpath moveto lineto stroke } bind def
/cir0 { newpath 0 360 arc stroke } bind def
/cir1 { newpath 0 360 arc gsave fill grestore stroke } bind def
/cir2 { newpath 0 360 arc gsave fill grestore stroke } bind def
/arc0 { newpath arc stroke } bind def
/arc1 { newpath 4 index 4 index moveto arc closepath gsave fill
    grestore stroke } bind def
/arc2 { newpath 4 index 4 index moveto arc closepath gsave fill
    grestore stroke } bind def
/poly0 { stroke } bind def
/poly1 { closepath gsave fill grestore stroke } bind def
/poly2 { closepath gsave fill grestore stroke } bind def
/rect0 { rectstroke } bind def
/rect1 { rectfill } bind def
/rect2 { rectfill } bind def
/linemode0 { 0 setlinecap 0 setlinejoin 0 setlinewidth } bind def
/linemode1 { 1 setlinecap 1 setlinejoin } bind def
/dashedline { [200] 100 setdash } bind def
/solidline { [] 0 setdash } bind def
/phantomshow { moveto
    /KicadFont findfont 0.000001 scalefont setfont
    show } bind def
/textshow { gsave
    findfont exch scalefont setfont concat 1 scale 0 0 moveto show
    } bind def
/reencodefont {
  findfont dup length dict begin
  { 1 index /FID ne
    { def }
    { pop pop } ifelse
  } forall
  /Encoding ISOLatin1Encoding def
  currentdict
  end } bind def
/KicadFont /Helvetica reencodefont definefont pop
/KicadFont-Bold /Helvetica-Bold reencodefont definefont pop
/KicadFont-Oblique /Helvetica-Oblique reencodefont definefont pop
/KicadFont-BoldOblique /Helvetica-BoldOblique reencodefont definefont pop
%%EndProlog
%%Page: 1 1
%%BeginPageSetup
gsave
0.0072 0.0072 scale
linemode1
82680 0 translate 90 rotate
67.4193 setlinewidth
%%EndPageSetup
0 0 0 setrgbcolor
53.086 setlinewidth
newpath
109029 76416.3 moveto
109029 39335.7 lineto
stroke
0 0 0 setrgbcolor
newpath
7900.56 76416.3 moveto
109029 76416.3 lineto
stroke
0 0 0 setrgbcolor
newpath
7900.56 39335.7 moveto
7900.56 76416.3 lineto
stroke
0 0 0 setrgbcolor
newpath
109029 39335.7 moveto
7900.56 39335.7 lineto
stroke
78.7398 setlinewidth
118.11 setlinewidth
0 0 0 setrgbcolor
0 0 0 setrgbcolor
newpath
9001.69 37475.6 moveto
9001.69 38656.7 lineto
9282.9 38656.7 lineto
9451.63 38600.5 lineto
9564.12 38488 lineto
9620.36 38375.5 lineto
9676.6 38150.6 lineto
9676.6 37981.8 lineto
9620.36 37756.9 lineto
9564.12 37644.4 lineto
9451.63 37531.9 lineto
9282.9 37475.6 lineto
9001.69 37475.6 lineto
stroke
newpath
10182.8 37475.6 moveto
10182.8 38263 lineto
stroke
newpath
10182.8 38038.1 moveto
10239 38150.6 lineto
10295.3 38206.8 lineto
10407.8 38263 lineto
10520.2 38263 lineto
stroke
newpath
10913.9 37475.6 moveto
10913.9 38263 lineto
stroke
newpath
10913.9 38656.7 moveto
10857.7 38600.5 lineto
10913.9 38544.3 lineto
10970.2 38600.5 lineto
10913.9 38656.7 lineto
10913.9 38544.3 lineto
stroke
newpath
11645.1 37475.6 moveto
11532.6 37531.9 lineto
11476.4 37644.4 lineto
11476.4 38656.7 lineto
stroke
newpath
12263.8 37475.6 moveto
12151.3 37531.9 lineto
12095.1 37644.4 lineto
12095.1 38656.7 lineto
stroke
newpath
13613.6 37475.6 moveto
13613.6 38656.7 lineto
14007.3 37813.1 lineto
14401 38656.7 lineto
14401 37475.6 lineto
stroke
newpath
15469.6 37475.6 moveto
15469.6 38094.3 lineto
15413.4 38206.8 lineto
15300.9 38263 lineto
15075.9 38263 lineto
14963.4 38206.8 lineto
stroke
newpath
15469.6 37531.9 moveto
15357.1 37475.6 lineto
15075.9 37475.6 lineto
14963.4 37531.9 lineto
14907.2 37644.4 lineto
14907.2 37756.9 lineto
14963.4 37869.3 lineto
15075.9 37925.6 lineto
15357.1 37925.6 lineto
15469.6 37981.8 lineto
stroke
newpath
16032.1 38263 moveto
16032.1 37081.9 lineto
stroke
newpath
16032.1 38206.8 moveto
16144.5 38263 lineto
16369.5 38263 lineto
16482 38206.8 lineto
16538.2 38150.6 lineto
16594.5 38038.1 lineto
16594.5 37700.6 lineto
16538.2 37588.1 lineto
16482 37531.9 lineto
16369.5 37475.6 lineto
16144.5 37475.6 lineto
16032.1 37531.9 lineto
stroke
newpath
17100.7 37588.1 moveto
17156.9 37531.9 lineto
17100.7 37475.6 lineto
17044.4 37531.9 lineto
17100.7 37588.1 lineto
17100.7 37475.6 lineto
stroke
newpath
17100.7 38206.8 moveto
17156.9 38150.6 lineto
17100.7 38094.3 lineto
17044.4 38150.6 lineto
17100.7 38206.8 lineto
17100.7 38094.3 lineto
stroke
showpage
grestore
%%EOF
